AFRICA_african_union = {
	allowed = { is_african_nation = yes }
	enable = { is_african_nation = yes }
	abort_when_not_enabled = yes

	ai_strategy = { type = befriend id = "HAM" value = 50 }
	ai_strategy = { type = befriend id = "GAH" value = 50 }
	ai_strategy = { type = befriend id = "SIE" value = 50 }
	ai_strategy = { type = befriend id = "MOR" value = 50 }
	ai_strategy = { type = befriend id = "ALG" value = 50 }
	ai_strategy = { type = befriend id = "TUN" value = 50 }
	ai_strategy = { type = befriend id = "MAU" value = 50 }
	ai_strategy = { type = befriend id = "MAL" value = 50 }
	ai_strategy = { type = befriend id = "SEN" value = 50 }
	ai_strategy = { type = befriend id = "GAM" value = 50 }
	ai_strategy = { type = befriend id = "GUB" value = 50 }
	ai_strategy = { type = befriend id = "GUI" value = 50 }
	ai_strategy = { type = befriend id = "CDI" value = 50 }
	ai_strategy = { type = befriend id = "BFA" value = 50 }
	ai_strategy = { type = befriend id = "BEN" value = 50 }
	ai_strategy = { type = befriend id = "TOG" value = 50 }
	ai_strategy = { type = befriend id = "NGR" value = 50 }
	ai_strategy = { type = befriend id = "CAM" value = 50 }
	ai_strategy = { type = befriend id = "CAR" value = 50 }
	ai_strategy = { type = befriend id = "CHA" value = 50 }
	ai_strategy = { type = befriend id = "SUD" value = 50 }
	ai_strategy = { type = befriend id = "SSU" value = 50 }
	ai_strategy = { type = befriend id = "ERI" value = 50 }
	ai_strategy = { type = befriend id = "DJI" value = 50 }
	ai_strategy = { type = befriend id = "SOM" value = 50 }
	ai_strategy = { type = befriend id = "EGU" value = 50 }
	ai_strategy = { type = befriend id = "SAO" value = 50 }
	ai_strategy = { type = befriend id = "KEN" value = 50 }
	ai_strategy = { type = befriend id = "UGA" value = 50 }
	ai_strategy = { type = befriend id = "TNZ" value = 50 }
	ai_strategy = { type = befriend id = "GAB" value = 50 }
	ai_strategy = { type = befriend id = "CNG" value = 50 }
	ai_strategy = { type = befriend id = "RWA" value = 50 }
	ai_strategy = { type = befriend id = "BUR" value = 50 }
	ai_strategy = { type = befriend id = "DRC" value = 50 }
	ai_strategy = { type = befriend id = "AGL" value = 50 }
	ai_strategy = { type = befriend id = "ZAM" value = 50 }
	ai_strategy = { type = befriend id = "MLW" value = 50 }
	ai_strategy = { type = befriend id = "MOZ" value = 50 }
	ai_strategy = { type = befriend id = "ZIM" value = 50 }
	ai_strategy = { type = befriend id = "BOT" value = 50 }
	ai_strategy = { type = befriend id = "SWA" value = 50 }
	ai_strategy = { type = befriend id = "LES" value = 50 }
	ai_strategy = { type = befriend id = "SML" value = 50 }
	ai_strategy = { type = befriend id = "MAD" value = 50 }
	ai_strategy = { type = befriend id = "COM" value = 50 }
	ai_strategy = { type = befriend id = "MRT" value = 50 }
	ai_strategy = { type = befriend id = "SEY" value = 50 }
	ai_strategy = { type = befriend id = "STH" value = 50 }
	ai_strategy = { type = befriend id = "VER" value = 50 }
	ai_strategy = { type = befriend id = "CNR" value = 50 }
	ai_strategy = { type = befriend id = "NAM" value = 50 }
	ai_strategy = { type = befriend id = "SHA" value = 50 }
	ai_strategy = { type = befriend id = "ETH" value = 50 }
	ai_strategy = { type = befriend id = "SAF" value = 50 }
	ai_strategy = { type = befriend id = "LBA" value = 50 }
	ai_strategy = { type = befriend id = "EGY" value = 50 }
}

AFRICA_likes_nigeria = {
	allowed = { is_african_nation = yes }
	enable = {
		is_african_nation = yes
		NOT = { original_tag = NIG }
		NIG = {
			NOT = { has_government = fascism }
		}
	}
	abort_when_not_enabled = yes
	ai_strategy = { type = befriend id = "NIG" value = 50 }
}

AFRICA_hate_nigerian_caliphate = {
	allowed = { is_african_nation = yes }
	enable = {
		is_african_nation = yes
		NOT = { original_tag = NIG }
		NIG = {
			has_government = fascism
		}
	}
	abort_when_not_enabled = yes
	ai_strategy = { type = befriend id = "NIG" value = -100 }
	ai_strategy = { type = contain id = "NIG" value = 100 }
	ai_strategy = { type = antagonize id = "NIG" value = 50 }
}