
strategic_region={
	id=146
	name="STRATEGICREGION_146"
	provinces={
		7 26 36 44 98 146 150 1082 1116 1129 1197 1257 1882 1898 1918 1934 1961 1991 1996 1999 2010 2014 2053 2076 2093 2098 2099 3077 3079 3086 3092 3102 3115 3120 3126 3989 4318 4375 4386 4403 4407 4425 4536 4888 4900 4914 4964 4987 4994 4996 4999 5011 5018 5033 5080 5094 5102 5157 5193 5310 6955 7106 7139 7196 7198 7206 7270 7346 7359 7374 7926 7940 7988 7997 8010 8018 8029 8037 8041 8059 8063 8068 8104 8121 8126 9093 9122 9819 9966 10021 10490 10514 10741 10750 10755 10787 10796 10802 10810 10817 10825 10834 10856 10865 10903 10910 10918 10920 11448 11756 12327 12502 12708 12724 12730 12732 12784 12801 12807 12815 12837 12846 12860 12890 12892 12899 13146 7041 7316 13246 14005 14006 14008 14009 14010 14034 14237 14238 14239 14240 14241 14242 14243 14244 14245 14246 14247 14248 14249 14250 14256 14257 14258 14259 14260 14261 14344 14415 14416 14506 14507 14508 14509 14620 14621 14850
	}
	weather={
		period={
			between={ 0.0 30.0 }
			temperature={ -35.0 -10.0 }
			#temperature_day_night={ 12.0 -12.0 }
			no_phenomenon=0.250
			rain_light=0.050
			rain_heavy=0.000
			snow=0.200
			blizzard=0.100
			arctic_water=0.000
			mud=0.000
			sandstorm=0.000
			min_snow_level=0.100
		}
		period={
			between={ 0.1 27.1 }
			temperature={ -30.0 -8.0 }
			#temperature_day_night={ 12.0 -12.0 }
			no_phenomenon=0.600
			rain_light=0.100
			rain_heavy=0.000
			snow=0.200
			blizzard=0.000
			arctic_water=0.000
			mud=0.000
			sandstorm=0.000
			min_snow_level=0.050
		}
		period={
			between={ 0.2 30.2 }
			temperature={ -10.0 0.0 }
			#temperature_day_night={ 12.0 -12.0 }
			no_phenomenon=0.800
			rain_light=0.000
			rain_heavy=0.000
			snow=0.200
			blizzard=0.000
			arctic_water=0.000
			mud=0.000
			sandstorm=0.000
			min_snow_level=0.010
		}
		period={
			between={ 0.3 29.3 }
			temperature={ -8.0 0.0 }
			#temperature_day_night={ 12.0 -12.0 }
			no_phenomenon=0.800
			rain_light=0.000
			rain_heavy=0.000
			snow=0.200
			blizzard=0.000
			arctic_water=0.000
			mud=0.000
			sandstorm=0.000
			min_snow_level=0.010
		}
		period={
			between={ 0.4 30.4 }
			temperature={ -8.0 8.0 }
			#temperature_day_night={ 9.0 -9.0 }
			no_phenomenon=0.600
			rain_light=0.150
			rain_heavy=0.250
			snow=0.000
			blizzard=0.000
			arctic_water=0.000
			mud=0.000
			sandstorm=0.000
			min_snow_level=0.010
		}
		period={
			between={ 0.5 29.5 }
			temperature={ -5.0 10.0 }
			#temperature_day_night={ 7.0 -7.0 }
			no_phenomenon=0.400
			rain_light=0.100
			rain_heavy=0.500
			snow=0.000
			blizzard=0.000
			arctic_water=0.000
			mud=0.000
			sandstorm=0.000
			min_snow_level=0.010
		}
		period={
			between={ 0.6 30.6 }
			temperature={ 3.0 10.0 }
			#temperature_day_night={ 7.0 -7.0 }
			no_phenomenon=0.150
			rain_light=0.350
			rain_heavy=0.500
			snow=0.000
			blizzard=0.000
			arctic_water=0.000
			mud=0.000
			sandstorm=0.000
			min_snow_level=0.010
		}
		period={
			between={ 0.7 30.7 }
			temperature={ 4.0 16.0 }
			#temperature_day_night={ 7.0 -7.0 }
			no_phenomenon=0.150
			rain_light=0.350
			rain_heavy=0.500
			snow=0.000
			blizzard=0.000
			arctic_water=0.000
			mud=0.000
			sandstorm=0.000
			min_snow_level=0.010
		}
		period={
			between={ 0.8 29.8 }
			temperature={ 5.0 15.0 }
			#temperature_day_night={ 7.0 -7.0 }
			no_phenomenon=0.400
			rain_light=0.200
			rain_heavy=0.400
			snow=0.000
			blizzard=0.000
			arctic_water=0.000
			mud=0.000
			sandstorm=0.000
			min_snow_level=0.010
		}
		period={
			between={ 0.9 30.9 }
			temperature={ -5.0 5.0 }
			#temperature_day_night={ 10.0 -10.0 }
			no_phenomenon=0.700
			rain_light=0.100
			rain_heavy=0.200
			snow=0.000
			blizzard=0.000
			arctic_water=0.000
			mud=0.000
			sandstorm=0.000
			min_snow_level=0.010
		}
		period={
			between={ 0.10 29.10 }
			temperature={ -16.0 0.0 }
			#temperature_day_night={ 10.0 -10.0 }
			no_phenomenon=0.350
			rain_light=0.000
			rain_heavy=0.050
			snow=0.200
			blizzard=0.100
			arctic_water=0.000
			mud=0.000
			sandstorm=0.000
			min_snow_level=0.010
		}
		period={
			between={ 0.11 30.11 }
			temperature={ -30.0 -2.0 }
			#temperature_day_night={ 12.0 -12.0 }
			no_phenomenon=0.280
			rain_light=0.020
			rain_heavy=0.000
			snow=0.200
			blizzard=0.100
			arctic_water=0.000
			mud=0.000
			sandstorm=0.000
			min_snow_level=0.050
		}
	}
}
