ideas = {
	bureaucracy = {
		law = yes
		use_list_view = yes

		bureau_01 = {
			cost = 200
			removal_cost = -1
			level = 1

			available = {
				if = {
					limit = { original_tag = PER }
					custom_trigger_tooltip = {
						tooltip = PER_majlis_block_tt
					}
					NOT = {
						hidden_trigger = {
							has_country_flag = PER_majlis_block
						}
					}
				}
				if = {
					limit = {
						OR = {
							has_idea = bureau_02
							has_idea = bureau_03
							has_idea = bureau_04
							has_idea = bureau_05
						}
						bureau_decrease_blocked = yes
					}
					bureau_decrease_blocked = no
				}
				if = { limit = { original_tag = DEN }
					NOT = { has_idea = DEN_special_municipal_districts_idea }
					NOT = { has_idea = DEN_direct_governance_idea }
				}
				if = { limit = { original_tag = FRA }
					NOT = { has_idea = FRA_administrative_reforms_1 }
					NOT = { has_idea = FRA_administrative_reforms_2 }
					NOT = { has_idea = FRA_idea_central }
				}
			}
			on_add = {
				custom_effect_tooltip = bureau_01_TT
				set_variable = { law_attitude = 3 }
				set_variable = { law_change = 1 }
				subtract_from_variable = { law_change = bureaucracy }
				law_attitude_change = yes
				set_variable = { bureaucracy = 1 }
				ingame_update_setup = yes
				set_law_vars = yes
				log = "[GetDateText]: [Root.GetName]: add idea bureau_01"

				bureau_law_desire_logger = yes
			}

			ai_will_do = {
				factor = 1
				modifier = {
					add = 250
					original_tag = SOV
					has_idea = bureau_02
					num_of_available_civilian_factories < 50
				}
				modifier = { # High priority to downsize if major economic problems
					factor = 50
					has_idea = bureau_02
					ai_has_major_economic_problems = yes
				}
				modifier = { # Moderate priority to downsize if moderate economic problems
					factor = 25
					has_idea = bureau_02
					ai_has_moderate_economic_problems = yes
				}
				modifier = { # Low priority to downsize if minor economic problems
					factor = 0.25
					has_idea = bureau_02
					ai_has_minor_economic_problems = yes
				}
				modifier = { # Make law more appealing to reduce if is above desired level
					add = 25
					has_idea = bureau_02
					has_country_flag = wants_bureau_01
				}
				# Killswitch for the AI
				# reference 00_desire_law_triggers.txt
				modifier = {
					factor = 0
					OR = {
						NOT = { has_country_flag = wants_bureau_01 }
						has_bureau_idea_law_desired = yes
						AND = {
							has_idea = bureau_02
							check_variable = { treasury_rate > 0.99 }
						}
					}
				}
			}

			cancel_if_invalid = no
		}
		bureau_02 = {
			cost = 80
			removal_cost = -1
			level = 2
			available = {
				if = {
					limit = { original_tag = PER }
					custom_trigger_tooltip = {
						tooltip = PER_majlis_block_tt
					}
					NOT = {
						hidden_trigger = {
							has_country_flag = PER_majlis_block
						}
					}
				}
				if = {
					limit = {
						OR = {
							has_idea = bureau_03
							has_idea = bureau_04
							has_idea = bureau_05
						}
						bureau_decrease_blocked = yes
					}
					bureau_decrease_blocked = no
				}
				if = {
					limit = {
						has_idea = bureau_01
						bureau_increase_blocked = yes
					}
					bureau_increase_blocked = no
				}
				if = { limit = { original_tag = DEN }
					NOT = { has_idea = DEN_direct_governance_idea }
				}
				if = { limit = { original_tag = FRA }
					NOT = { has_idea = FRA_administrative_reforms_2 }
					NOT = { has_idea = FRA_idea_central }
				}
			}
			on_add = {
				custom_effect_tooltip = bureau_02_TT
				set_variable = { law_attitude = 3 }
				set_variable = { law_change = 2 }
				subtract_from_variable = { law_change = bureaucracy }
				law_attitude_change = yes
				set_variable = { bureaucracy = 2 }
				ingame_update_setup = yes
				set_law_vars = yes
				log = "[GetDateText]: [Root.GetName]: add idea bureau_02"

				bureau_law_desire_logger = yes
			}

			modifier = {
				political_power_gain = 0.25
				production_speed_buildings_factor = -0.05
			}

			ai_will_do = {
				factor = 1
				modifier = {
					add = 250
					original_tag = SOV
					has_idea = bureau_03
					num_of_available_civilian_factories < 70
				}
				modifier = {
					factor = 0
					original_tag = SOV
					has_idea = bureau_01
					num_of_available_civilian_factories < 70
				}
				modifier = { #High Priority to Downsize if they have major economic powers
					factor = 50
					has_idea = bureau_03
					ai_has_major_economic_problems = yes
				}
				modifier = {
					factor = 25
					has_idea = bureau_03
					ai_has_moderate_economic_problems = yes
				}
				modifier = { #Should avoid increasing wherever possible
					factor = 0.25
					has_idea = bureau_03
					ai_has_minor_economic_problems = yes
				}
				modifier = {
					factor = 5
					has_idea = bureau_03
					has_country_flag = wants_bureau_02
				}

				modifier = {
					add = 25
					has_idea = bureau_03
					has_country_flag = wants_bureau_02
				}
				modifier = { # High priority to downsize if major economic problems
					add = 8
					has_idea = bureau_03
					ai_has_major_economic_problems = yes
				}
				modifier = { # Moderate priority to downsize if moderate economic problems
					add = 4
					AND = {
						has_idea = bureau_03
						ai_has_moderate_economic_problems = yes
					}
				}
				modifier = { # Low priority to downsize if minor economic problems
					add = 2
					AND = {
						has_idea = bureau_03
						ai_has_minor_economic_problems = yes
					}
				}
				modifier = { # Make law more appealing to raise if is below desired level
					factor = 8
					has_idea = bureau_01
					OR = {
						has_country_flag = wants_bureau_02
						has_country_flag = wants_bureau_03
						has_country_flag = wants_bureau_04
						has_country_flag = wants_bureau_05
					}
				}
				modifier = { # Make law more appealing to reduce if is above desired level
					add = 8
					has_idea = bureau_03
					OR = {
						has_country_flag = wants_bureau_01
						has_country_flag = wants_bureau_02
					}
				}
				modifier = {
					add = 15
					has_idea = bureau_01
					is_major = yes
				}
				modifier = {
					factor = 0
					OR = {
						has_bureau_idea_law_desired = yes
						AND = {
							has_idea = bureau_01
							check_variable = { treasury_rate < 0 }
						}
						AND = {
							has_idea = bureau_03
							check_variable = { treasury_rate > 0.99 }
						}
					}
				}
				modifier = { # no money
					factor = 0
					has_idea = bureau_01
					ai_has_deficit = yes
				}
			}

			cancel_if_invalid = no
		}
		bureau_03 = {
			default = yes
			removal_cost = -1
			level = 3

			available = {
				if = {
					limit = { original_tag = PER }
					custom_trigger_tooltip = {
						tooltip = PER_majlis_block_tt
					}
					NOT = {
						hidden_trigger = {
							has_country_flag = PER_majlis_block
						}
					}
				}
				if = {
					limit = {
						OR = {
							has_idea = bureau_04
							has_idea = bureau_05
						}
						bureau_decrease_blocked = yes
					}
					bureau_decrease_blocked = no
				}
				if = {
					limit = {
						OR = {
							has_idea = bureau_01
							has_idea = bureau_02
						}
						bureau_increase_blocked = yes
					}
					bureau_increase_blocked = no
				}
				if = { limit = { original_tag = DEN }
					NOT = { has_idea = DEN_direct_governance_idea }
				}
			}
			on_add = {
				custom_effect_tooltip = bureau_03_TT
				set_variable = { law_attitude = 3 }
				set_variable = { law_change = 3 }
				subtract_from_variable = { law_change = bureaucracy }
				law_attitude_change = yes
				set_variable = { bureaucracy = 3 }
				ingame_update_setup = yes
				set_law_vars = yes
				log = "[GetDateText]: [Root.GetName]: add idea bureau_03"

				bureau_law_desire_logger = yes
			}
			modifier = {
				political_power_gain = 0.50
				production_speed_buildings_factor = -0.1
			}

			ai_will_do = {
				factor = 1
				modifier = {
					add = 250
					original_tag = SOV
					has_idea = bureau_04
					num_of_available_civilian_factories < 70
				}
				modifier = {
					factor = 0
					original_tag = SOV
					has_idea = bureau_02
					num_of_available_civilian_factories < 70
				}
				modifier = { # Low priority to increase, if no economic issues
					add = 1
					has_idea = bureau_02
					ai_has_major_economic_problems = no
					ai_has_moderate_economic_problems = no
					ai_has_minor_economic_problems = no
					ai_has_acceptable_deficit = yes
				}
				modifier = { # High priority to downsize if major economic problems
					add = 16
					AND = {
						has_idea = bureau_04
						ai_has_major_economic_problems = yes
					}
				}
				modifier = { # Moderate priority to downsize if moderate economic problems
					add = 8
					AND = {
						has_idea = bureau_04
						ai_has_moderate_economic_problems = yes
					}
				}
				modifier = { # Low priority to downsize if minor economic problems
					add = 4
					AND = {
						has_idea = bureau_04
						ai_has_minor_economic_problems = yes
					}
				}
				modifier = { # Make law more appealing to raise if is below desired level
					factor = 8
					has_idea = bureau_02
					OR = {
						has_country_flag = wants_bureau_03
						has_country_flag = wants_bureau_04
						has_country_flag = wants_bureau_05
					}
				}
				modifier = { # Make law more appealing to reduce if is above desired level
					add = 8
					has_idea = bureau_04
					OR = {
						has_country_flag = wants_bureau_01
						has_country_flag = wants_bureau_02
						has_country_flag = wants_bureau_03
					}
				}
				modifier = {
					factor = 0
					has_idea = bureau_04
					NOT = { has_country_flag = wants_bureau_03 }
					ai_has_acceptable_surplus_factories = yes
				}
				modifier = {
					add = 15
					has_idea = bureau_02
					is_major = yes
				}
				modifier = {
					factor = 0
					OR = {
						has_bureau_idea_law_desired = yes
						AND = {
							has_idea = bureau_02
							check_variable = { treasury_rate < 0 }
						}
						AND = {
							has_idea = bureau_04
							check_variable = { treasury_rate > 0.99 }
						}
					}
				}
				modifier = { # no money
					factor = 0
					has_idea = bureau_02
					ai_has_deficit = yes
				}
			}

			cancel_if_invalid = no
		}
		bureau_04 = {
			cost = 30
			removal_cost = -1
			level = 4

			available = {
				if = {
					limit = { original_tag = PER }
					custom_trigger_tooltip = {
						tooltip = PER_majlis_block_tt
					}
					NOT = {
						hidden_trigger = {
							has_country_flag = PER_majlis_block
						}
					}
				}
				if = {
					limit = { original_tag = GER }
					custom_trigger_tooltip = {
						tooltip = GER_Grundgesetz_tt
					}
					NOT = {
						hidden_trigger = {
						has_country_flag = GER_Grundgesetz
						}
					}
				}
				if = {
					limit = {
						has_idea = bureau_05
						bureau_decrease_blocked = yes
					}
					bureau_decrease_blocked = no
				}
				if = {
					limit = {
						OR = {
							has_idea = bureau_01
							has_idea = bureau_02
							has_idea = bureau_03
						}
						bureau_increase_blocked = yes
					}
					bureau_increase_blocked = no
				}
				if = {
					limit = {
						original_tag = SIN
						has_idea = SIN_decentralize_the_government_idea
					}
					custom_trigger_tooltip = {
						tooltip = SIN_decentralize_the_government_idea_trigger_tt
						NOT = { has_idea = SIN_decentralize_the_government_idea }
					}
				}
				if = {
					limit = { original_tag = FRA }
					NOT = { has_idea = FRA_idea_decentral }
				}
			}
			on_add = {
				custom_effect_tooltip = bureau_04_TT
				set_variable = { law_attitude = 3 }
				set_variable = { law_change = 4 }
				subtract_from_variable = { law_change = bureaucracy }
				law_attitude_change = yes
				set_variable = { bureaucracy = 4 }
				ingame_update_setup = yes
				set_law_vars = yes

				bureau_law_desire_logger = yes
			}

			modifier = {
				political_power_gain = 0.75
				production_speed_buildings_factor = -0.15
			}

			ai_will_do = {
				factor = 1
				modifier = {
					add = 250
					original_tag = SOV
					has_idea = bureau_05
					num_of_available_civilian_factories < 70
				}
				modifier = {
					factor = 0
					original_tag = SOV
					has_idea = bureau_03
					num_of_available_civilian_factories < 70
				}
				modifier = { # Low priority to increase, if no economic issues
					add = 1
					has_idea = bureau_03
					ai_has_major_economic_problems = no
					ai_has_moderate_economic_problems = no
					ai_has_minor_economic_problems = no
					ai_has_acceptable_deficit = yes
				}
				modifier = { # High priority to downsize if major economic problems
					add = 32
					AND = {
						has_idea = bureau_05
						ai_has_major_economic_problems = yes
					}
				}
				modifier = { # Moderate priority to downsize if moderate economic problems
					add = 16
					AND = {
						has_idea = bureau_05
						ai_has_moderate_economic_problems = yes
					}
				}
				modifier = { # Low priority to downsize if minor economic problems
					add = 8
					AND = {
						has_idea = bureau_05
						ai_has_minor_economic_problems = yes
					}
				}
				modifier = { # Make law more appealing to raise if is below desired level
					factor = 8
					has_idea = bureau_03
					OR = {
						has_country_flag = wants_bureau_04
						has_country_flag = wants_bureau_05
					}
				}
				modifier = { # Make law more appealing to reduce if is above desired level
					add = 8
					has_idea = bureau_05
					OR = {
						has_country_flag = wants_bureau_01
						has_country_flag = wants_bureau_02
						has_country_flag = wants_bureau_03
						has_country_flag = wants_bureau_04
					}
				}
				modifier = { #Try to not lower law if you have acceptable surplus
					factor = 0
					has_idea = bureau_05
					NOT = { has_country_flag = wants_bureau_04 }
					ai_has_acceptable_surplus_factories = yes
				}
				modifier = {
					add = 15
					has_idea = bureau_03
					is_major = yes
				}
				modifier = {
					factor = 0
					OR = {
						has_bureau_idea_law_desired = yes
						AND = {
							has_idea = bureau_03
							check_variable = { treasury_rate < 0 }
						}
						AND = {
							has_idea = bureau_05
							check_variable = { treasury_rate > 0.99 }
						}
					}
				}
				modifier = { # no money
					factor = 0
					has_idea = bureau_03
					ai_has_deficit = yes
				}
			}

			cancel_if_invalid = no
		}
		bureau_05 = {
			cost = 10
			removal_cost = -1
			level = 5

			available = {
				if = {
					limit = { original_tag = PER }
					custom_trigger_tooltip = {
						tooltip = PER_majlis_block_tt
					}
					NOT = {
						hidden_trigger = {
							has_country_flag = PER_majlis_block
						}
					}
				}
				if = {
					limit = { original_tag = GER }
					custom_trigger_tooltip = {
						tooltip = GER_Grundgesetz_tt
					}
					NOT = {
						hidden_trigger = {
							has_country_flag = GER_Grundgesetz
						}
					}
				}
				if = {
					limit = {
						OR = {
							has_idea = bureau_01
							has_idea = bureau_02
							has_idea = bureau_03
							has_idea = bureau_04
						}
						bureau_increase_blocked = yes
					}
					bureau_increase_blocked = no
				}
				if = {
					limit = {
						original_tag = SIN
						has_idea = SIN_decentralize_the_government_idea
					}
					custom_trigger_tooltip = {
						tooltip = SIN_decentralize_the_government_idea_trigger_tt
						NOT = { has_idea = SIN_decentralize_the_government_idea }
					}
				}
				if = {
					limit = { original_tag = FRA }
					NOT = { has_idea = FRA_idea_decentral }
				}
			}
			on_add = {
				custom_effect_tooltip = bureau_05_TT
				set_variable = { law_attitude = 3 }
				set_variable = { law_change = 5 }
				subtract_from_variable = { law_change = bureaucracy }
				law_attitude_change = yes
				set_variable = { bureaucracy = 5 }
				ingame_update_setup = yes
				set_law_vars = yes

				bureau_law_desire_logger = yes
			}

			modifier = {
				political_power_gain = 1.0
				production_speed_buildings_factor = -0.2
			}

			ai_will_do = {
				factor = 1
				modifier = {
					factor = 0
					original_tag = SOV
					has_idea = bureau_04
					num_of_available_civilian_factories < 70
				}
				modifier = { # Low priority to increase, if no economic issues
					add = 1
					has_idea = bureau_04
					ai_has_major_economic_problems = no
					ai_has_moderate_economic_problems = no
					ai_has_minor_economic_problems = no
					ai_has_acceptable_deficit = yes
				}
				modifier = { # Make law more appealing to raise if is below desired level
					factor = 8
					has_idea = bureau_04
					has_country_flag = wants_bureau_05
				}
				modifier = {
					factor = 0
					OR = {
						NOT = { has_country_flag = wants_bureau_05 }
						has_bureau_idea_law_desired = yes
						AND = {
							has_idea = bureau_04
							check_variable = { treasury_rate < 0 }
						}
					}
				}
				modifier = { # no money
					factor = 0
					has_idea = bureau_04
					ai_has_deficit = yes
				}
			}

			cancel_if_invalid = no
		}
	}
	crime_fighting = {
		law = yes
		use_list_view = yes

		police_01 = {
			removal_cost = -1
			level = 1
			available = {
				if = {
					limit = { original_tag = PER }
					custom_trigger_tooltip = {
						tooltip = PER_majlis_block_tt
					}
					NOT = {
						hidden_trigger = {
							has_country_flag = PER_majlis_block
						}
					}
				}
				if = {
					limit = { original_tag = GER }
					custom_trigger_tooltip = {
						tooltip = GER_Grundgesetz_tt
					}
					NOT = {
						hidden_trigger = {
						has_country_flag = GER_Grundgesetz
						}
					}
				}
				if = {
					limit = {
						OR = {
							has_idea = police_02
							has_idea = police_03
							has_idea = police_04
							has_idea = police_05
						}
						police_decrease_blocked = yes
					}
					police_decrease_blocked = no
				}
			}
			on_add = {
				custom_effect_tooltip = police_01_TT
				set_variable = { law_attitude = 5 }
				set_variable = { law_change = 1 }
				subtract_from_variable = { law_change = crime_fighting }
				law_attitude_change = yes
				set_variable = { crime_fighting = 1 }
				ingame_update_setup = yes
				set_law_vars = yes
				log = "[GetDateText]: [Root.GetName]: add idea police_01"
				police_law_desire_logger = yes
			}

			modifier = {
			}

			ai_will_do = {
				factor = 1
				modifier = {
					factor = 50
					has_idea = police_02
					ai_has_major_economic_problems = yes
				}
				modifier = {
					factor = 25
					has_idea = police_02
					ai_has_moderate_economic_problems = yes
				}
				modifier = {
					factor = 0.25
					has_idea = police_02
					ai_has_minor_economic_problems = yes
				}
				modifier = { ##Totally disregard if have no issues with current spending values
					factor = 0
					has_idea = bureau_02
					ai_has_minor_economic_problems = no
					ai_has_major_economic_problems = no
					ai_has_moderate_economic_problems = no
					ai_has_acceptable_deficit = yes
				}
				modifier = { # Make law more appealing to reduce if is above desired level
					factor = 15
					has_idea = police_02
					has_country_flag = wants_police_01
				}
				modifier = {
					factor = 20
					has_idea = police_01
					has_country_flag = wants_police_01
				}
				modifier = {
					factor = 0
					has_police_idea_law_desired = yes
				}
				modifier = { #Absoultely no reduction in policing in a police state.
					factor = 0
					has_totalitarian_government = yes
				}
			}

			cancel_if_invalid = no
		}
		police_02 = {
			default = yes
			removal_cost = -1
			level = 2
			available = {
				if = {
					limit = { original_tag = PER }
					custom_trigger_tooltip = {
						tooltip = PER_majlis_block_tt
					}
					NOT = {
						hidden_trigger = {
							has_country_flag = PER_majlis_block
						}
					}
				}
				if = {
					limit = {
						OR = {
							has_idea = police_03
							has_idea = police_04
							has_idea = police_05
						}
						police_decrease_blocked = yes
					}
					police_decrease_blocked = no
				}
				if = {
					limit = {
						OR = {
							has_idea = police_01
						}
						police_increase_blocked = yes
					}
					police_increase_blocked = no
				}
			}
			on_add = {
				custom_effect_tooltip = police_02_TT
				set_variable = { law_attitude = 5 }
				set_variable = { law_change = 2 }
				subtract_from_variable = { law_change = crime_fighting }
				law_attitude_change = yes
				set_variable = { crime_fighting = 2 }
				ingame_update_setup = yes
				set_law_vars = yes
				log = "[GetDateText]: [Root.GetName]: add idea police_02"
				police_law_desire_logger = yes
			}
			modifier = {
				command_power_gain = 0.25
				political_power_cost = 0.1
				stability_factor = 0.05
				foreign_subversive_activites = -0.15
				decryption = 1
				planning_speed = 0.10
				foreign_influence_defense_modifier = 0.05
				required_garrison_factor = -0.1
			}
			ai_will_do = {
				factor = 1
				modifier = {
					factor = 50
					has_idea = police_03
					ai_has_major_economic_problems = yes
				}
				modifier = {
					factor = 25
					has_idea = police_03
					ai_has_moderate_economic_problems = yes
				}
				modifier = {
					factor = 0.25
					has_idea = police_03
					ai_has_minor_economic_problems = yes
				}
				modifier = { ##Totally disregard if have no issues with current spending values
					factor = 0
					has_idea = police_03
					ai_has_minor_economic_problems = no
					ai_has_major_economic_problems = no
					ai_has_moderate_economic_problems = no
					ai_has_acceptable_deficit = yes
				}
				modifier = { # Totalitarian governments less willing to reduce police/security spending
					factor = 0.10
					has_idea = police_03
					has_totalitarian_government = yes
				}
				modifier = { # Make law more appealing to raise if is below desired level
					factor = 15
					has_idea = police_01
					OR = {
						has_country_flag = wants_police_02
						has_country_flag = wants_police_03
						has_country_flag = wants_police_04
						has_country_flag = wants_police_05
					}
				}
				modifier = {
					factor = 15
					has_idea = police_03
					OR = {
						has_country_flag = wants_police_01
						has_country_flag = wants_police_02
					}
				}
				modifier = { # Make law more appealing to keep if is at desired level
					factor = 20
					has_idea = police_02
					has_country_flag = wants_police_02
				}
				modifier = {
					factor = 0
					has_police_idea_law_desired = yes
				}
				modifier = {
					factor = 0
					has_idea = police_01
					has_country_flag = AI_economic_downspiral
				}
				modifier = { # no money
					factor = 0
					has_idea = police_01
					ai_has_deficit = yes
				}
			}

			cancel_if_invalid = no
		}
		police_03 = {
			removal_cost = -1
			level = 3
			available = {
				if = {
					limit = { original_tag = PER }
					custom_trigger_tooltip = {
						tooltip = PER_majlis_block_tt
					}
					NOT = {
						hidden_trigger = {
							has_country_flag = PER_majlis_block
						}
					}
				}
				if = {
					limit = {
						OR = {
							has_idea = police_04
							has_idea = police_05
						}
						police_decrease_blocked = yes
					}
					police_decrease_blocked = no
				}
				if = {
					limit = {
						OR = {
							has_idea = police_01
							has_idea = police_02
						}
						police_increase_blocked = yes
					}
					police_increase_blocked = no
				}
			}
			on_add = {
				custom_effect_tooltip = police_03_TT
				set_variable = { law_attitude = 5 }
				set_variable = { law_change = 3 }
				subtract_from_variable = { law_change = crime_fighting }
				law_attitude_change = yes
				set_variable = { crime_fighting = 3 }
				ingame_update_setup = yes
				set_law_vars = yes
				log = "[GetDateText]: [Root.GetName]: add idea police_03"
				police_law_desire_logger = yes
			}

			modifier = {
				command_power_gain = 0.5
				political_power_cost = 0.2
				stability_factor = 0.10
				drift_defence_factor = 0.30
				foreign_subversive_activites = -0.35
				decryption = 1
				encryption = 1
				planning_speed = 0.15
				foreign_influence_defense_modifier = 0.10
				required_garrison_factor = -0.2
			}

			ai_will_do = {
				factor = 1
				modifier = {
					factor = 50
					has_idea = police_04
					ai_has_major_economic_problems = yes
				}
				modifier = {
					factor = 25
					has_idea = police_04
					ai_has_moderate_economic_problems = yes
				}
				modifier = {
					factor = 0.25
					has_idea = police_04
					ai_has_minor_economic_problems = yes
				}
				modifier = { ##Totally disregard if have no issues with current spending values
					factor = 0
					has_idea = police_03
					ai_has_minor_economic_problems = no
					ai_has_major_economic_problems = no
					ai_has_moderate_economic_problems = no
					ai_has_acceptable_deficit = yes
				}
				modifier = { #totalitarian governments less wiling to reduce police/security
					factor = 0.10
					has_idea = police_04
					has_totalitarian_government = yes
				}
				modifier = { #Make law more appealing to raise if is below desired level
					factor = 15
					has_idea = police_01
					OR = {
						has_country_flag = wants_police_02
						has_country_flag = wants_police_03
						has_country_flag = wants_police_04
						has_country_flag = wants_police_05
					}
				}
				modifier = {
					factor = 15
					has_idea = police_04
					OR = {
						has_country_flag = wants_police_01
						has_country_flag = wants_police_02
						has_country_flag = wants_police_03
					}
				}
				modifier = {
					factor = 20
					has_idea = police_03
					has_country_flag = wants_police_03
				}
				modifier = {
					factor = 0
					has_police_idea_law_desired = yes
				}
				modifier = {
					factor = 0
					has_idea = police_02
					has_country_flag = AI_economic_downspiral
				}
				modifier = { # no money
					factor = 0
					has_idea = police_02
					ai_has_deficit = yes
				}
			}
			cancel_if_invalid = no
		}
		police_04 = {
			removal_cost = -1
			level = 4
			available = {
				if = {
					limit = { original_tag = PER }
					custom_trigger_tooltip = {
						tooltip = PER_majlis_block_tt
					}
					NOT = {
						hidden_trigger = {
							has_country_flag = PER_majlis_block
						}
					}
				}
				if = {
					limit = {
						OR = {
							has_idea = police_05
						}
						police_decrease_blocked = yes
					}
					police_decrease_blocked = no
				}
				if = {
					limit = {
						OR = {
							has_idea = police_01
							has_idea = police_02
							has_idea = police_03
						}
						police_increase_blocked = yes
					}
					police_increase_blocked = no
				}
			}
			on_add = {
				custom_effect_tooltip = police_04_TT
				set_variable = { law_attitude = 5 }
				set_variable = { law_change = 4 }
				subtract_from_variable = { law_change = crime_fighting }
				law_attitude_change = yes
				set_variable = { crime_fighting = 4 }
				ingame_update_setup = yes
				set_law_vars = yes
				log = "[GetDateText]: [Root.GetName]: add idea police_04"
				police_law_desire_logger = yes
			}

			modifier = {
				command_power_gain = 0.75
				political_power_cost = 0.3
				stability_factor = 0.15
				drift_defence_factor = 0.80
				foreign_subversive_activites = -0.50
				decryption = 2
				encryption = 1
				planning_speed = 0.20
				foreign_influence_defense_modifier = 0.15
				required_garrison_factor = -0.3
			}

			ai_will_do = {
				factor = 1
				modifier = {
					factor = 50
					has_idea = police_05
					ai_has_major_economic_problems = yes
				}
				modifier = {
					factor = 25
					has_idea = police_05
					ai_has_moderate_economic_problems = yes
				}
				modifier = {
					factor = 0.25
					has_idea = police_05
					ai_has_minor_economic_problems = yes
				}
				modifier = { ##Totally disregard if have no issues with current spending values
					factor = 0
					has_idea = police_03
					ai_has_minor_economic_problems = no
					ai_has_major_economic_problems = no
					ai_has_moderate_economic_problems = no
					ai_has_acceptable_deficit = yes
				}
				modifier = {
					factor = 0.10
					has_idea = police_05
					has_totalitarian_government = yes
				}
				modifier = {
					factor = 15
					has_idea = police_01
					OR = {
						has_country_flag = wants_police_02
						has_country_flag = wants_police_03
						has_country_flag = wants_police_04
						has_country_flag = wants_police_05
					}
				}
				modifier = {
					factor = 15
					has_idea = police_04
					OR = {
						has_country_flag = wants_police_01
						has_country_flag = wants_police_02
						has_country_flag = wants_police_03
					}
				}
				modifier = {
					factor = 20
					has_idea = police_04
					has_country_flag = wants_police_04
				}
				modifier = {
					factor = 0
					has_police_idea_law_desired = yes
				}
				modifier = {
					factor = 0
					has_idea = police_03
					has_country_flag = AI_economic_downspiral
				}
				modifier = { # no money
					factor = 0
					has_idea = police_03
					ai_has_deficit = yes
				}
			}

			cancel_if_invalid = no
		}
		police_05 = {
			removal_cost = -1
			level = 5
			available = {
				if = {
					limit = { original_tag = PER }
					custom_trigger_tooltip = {
						tooltip = PER_majlis_block_tt
					}
					NOT = {
						hidden_trigger = {
							has_country_flag = PER_majlis_block
						}
					}
				}
				if = {
					limit = {
						OR = {
							has_idea = police_01
							has_idea = police_02
							has_idea = police_03
							has_idea = police_04
						}
						police_increase_blocked = yes
					}
					police_increase_blocked = no
				}
			}
			on_add = {
				custom_effect_tooltip = police_05_TT
				set_variable = { law_attitude = 5 }
				set_variable = { law_change = 5 }
				subtract_from_variable = { law_change = crime_fighting }
				law_attitude_change = yes
				set_variable = { crime_fighting = 5 }
				ingame_update_setup = yes
				set_law_vars = yes
				log = "[GetDateText]: [Root.GetName]: add idea police_05"
				police_law_desire_logger = yes
			}
			modifier = {
				command_power_gain = 1
				political_power_cost = 0.5
				stability_factor = 0.20
				drift_defence_factor = 1.50
				foreign_subversive_activites = -0.90
				decryption = 2
				encryption = 2
				planning_speed = 0.20
				foreign_influence_defense_modifier = 0.20
				required_garrison_factor = -0.4
			}

			ai_will_do = {
				factor = 1
				modifier = {
					factor = 0.5
					has_totalitarian_government = yes
				}
				modifier = {
					factor = 25
					has_idea = police_04
					has_country_flag = wants_police_05
				}
				modifier = {
					factor = 15
					AND = {
						OR = {
							has_idea = police_01
							has_idea = police_02
							has_idea = police_03
							has_idea = police_04
						}
						OR = {
							has_country_flag = wants_police_04
							has_country_flag = wants_police_05
						}
					}
				}
				modifier = { ##Totally disregard if have no issues with current spending values
					factor = 0
					has_idea = police_03
					ai_has_minor_economic_problems = no
					ai_has_major_economic_problems = no
					ai_has_moderate_economic_problems = no
					ai_has_acceptable_deficit = yes
				}
				modifier = {
					factor = 0.10
					OR = {
						ai_has_major_economic_problems = yes
						ai_has_moderate_economic_problems = yes
					}
				}
				modifier = {
					factor = 20
					has_idea = police_05
					has_country_flag = wants_police_05
				}
				modifier = {
					factor = 0
					has_police_idea_law_desired = yes
				}
				modifier = {
					factor = 0
					has_idea = police_04
					has_country_flag = AI_economic_downspiral
				}
				modifier = { # no money
					factor = 0
					has_idea = police_04
					ai_has_deficit = yes
				}
			}

			cancel_if_invalid = no
		}
	}
	education_budget = {
		law = yes
		use_list_view = yes

		edu_01 = {
			cost = 200
			removal_cost = -1
			level = 1
			available = {
				if = {
					limit = { original_tag = PER }
					custom_trigger_tooltip = {
						tooltip = PER_majlis_block_tt
					}
					NOT = {
						hidden_trigger = {
							has_country_flag = PER_majlis_block
						}
					}
				}
				if = {
					limit = {
						OR = {
							has_idea = edu_02
							has_idea = edu_03
							has_idea = edu_04
							has_idea = edu_05
						}
						edu_decrease_blocked = yes
					}
					edu_decrease_blocked = no
				}
				if = {
					limit = {
						original_tag = SIN
						has_idea = SIN_centralized_education_idea
					}
					custom_trigger_tooltip = {
						tooltip = SIN_centralized_education_idea_trigger_tt
						NOT = { has_idea = SIN_centralized_education_idea }
					}
				}
			}
			on_add = {
				custom_effect_tooltip = edu_01_TT
				set_variable = { law_attitude = 6 }
				set_variable = { law_change = 1 }
				subtract_from_variable = { law_change = education_budget }
				law_attitude_change = yes
				set_variable = { education_budget = 1 }
				ingame_update_setup = yes
				set_law_vars = yes
				log = "[GetDateText]: [Root.GetName]: add idea edu_01"
				education_law_desire_logger = yes
			}

			ai_will_do = {
				factor = 1
				modifier = {
					factor = 50
					has_idea = edu_02
					ai_has_major_economic_problems = yes
				}
				modifier = {
					factor = 5
					has_idea = edu_02
					ai_has_moderate_economic_problems = yes
				}
				modifier = { ##Totally disregard if have no issues with current spending values
					factor = 0
					has_idea = edu_02
					ai_has_minor_economic_problems = no
					ai_has_major_economic_problems = no
					ai_has_moderate_economic_problems = no
					ai_has_acceptable_deficit = yes
				}
				modifier = { #Make law more appealling if you need to get to desired levle
					factor = 15
					has_idea = edu_02
					has_country_flag = wants_edu_01
				}
				modifier = {
					factor = 20
					has_idea = edu_01
					has_country_flag = wants_edu_01
				}
				modifier = { #Liberal governments less willing
					factor = 0.50
					has_liberal_government_or_in_coalition = yes
				}
				modifier = { # Socialist governments less willing to reduce education spending
					factor = 0.25
					has_socialist_government_or_in_coalition = yes
				}
				modifier = {
					factor = 1.10
					has_conservative_government_or_in_coalition = yes
				}
				modifier = { #ABSOLUTELY NO CHANGE IF YOU HAVE REACHED DESIRED LAW
					factor = 0
					NOT = { has_global_flag = GAME_RULE_enabled_hard_economic_ai }
					has_education_law_desired = yes
				}
			}

			modifier = {
				research_speed_factor = 0.02
			}

			cancel_if_invalid = no
		}
		edu_02 = {
			default = yes
			cost = 80
			removal_cost = -1
			level = 2
			available = {
				if = {
					limit = { original_tag = PER }
					custom_trigger_tooltip = {
						tooltip = PER_majlis_block_tt
					}
					NOT = {
						hidden_trigger = {
							has_country_flag = PER_majlis_block
						}
					}
				}
				if = {
					limit = {
						OR = {
							has_idea = edu_03
							has_idea = edu_04
							has_idea = edu_05
						}
						edu_decrease_blocked = yes
					}
					edu_decrease_blocked = no
				}
				if = {
					limit = {
						OR = {
							has_idea = edu_01
						}
						edu_increase_blocked = yes
					}
					edu_increase_blocked = no
				}
				if = {
					limit = {
						original_tag = SIN
						has_idea = SIN_centralized_education_idea
					}
					custom_trigger_tooltip = {
						tooltip = SIN_centralized_education_idea_trigger_tt
						NOT = { has_idea = SIN_centralized_education_idea }
					}
				}
			}
			on_add = {
				custom_effect_tooltip = edu_02_TT
				set_variable = { law_attitude = 6 }
				set_variable = { law_change = 2 }
				subtract_from_variable = { law_change = education_budget }
				law_attitude_change = yes
				set_variable = { education_budget = 2 }
				ingame_update_setup = yes
				set_law_vars = yes
				log = "[GetDateText]: [Root.GetName]: add idea edu_02"
				education_law_desire_logger = yes
			}

			ai_will_do = {
				factor = 1
				modifier = {
					factor = 50
					has_idea = edu_03
					ai_has_major_economic_problems = yes
				}
				modifier = {
					factor = 5
					has_idea = edu_03
					ai_has_moderate_economic_problems = yes
				}
				modifier = { ##Totally disregard if have no issues with current spending values
					factor = 0
					has_idea = edu_03
					ai_has_minor_economic_problems = no
					ai_has_major_economic_problems = no
					ai_has_moderate_economic_problems = no
					ai_has_acceptable_deficit = yes
				}
				modifier = {
					factor = 15
					has_idea = edu_03
					has_country_flag = wants_edu_02
				}
				modifier = {
					factor = 20
					has_idea = edu_02
					has_country_flag = wants_edu_02
				}
				modifier = { #Liberal governments less willing
					factor = 0.50
					has_liberal_government_or_in_coalition = yes
				}
				modifier = { # Socialist governments less willing to reduce education spending
					factor = 0.25
					has_socialist_government_or_in_coalition = yes
				}
				modifier = {
					factor = 1.10
					has_idea = edu_02
					has_conservative_government_or_in_coalition = yes
				}
				modifier = { # Make law more appealing to raise if is below desired level
					factor = 10
					has_idea = edu_01
					OR = {
						has_country_flag = wants_edu_02
						has_country_flag = wants_edu_03
						has_country_flag = wants_edu_04
						has_country_flag = wants_edu_05
					}
				}
				modifier = { # Make law more appealing to reduce if is above desired level
					factor = 10
					has_idea = edu_03
					OR = {
						has_country_flag = wants_edu_01
						has_country_flag = wants_edu_02
					}
				}
				modifier = { # no money
					factor = 0
					has_idea = edu_01
					ai_has_deficit = yes
				}
				modifier = { # money? go!
					factor = 10
					has_idea = edu_01
					check_variable = { treasury_rate > 1.00 }
					OR = {
						has_country_flag = wants_edu_02
						has_country_flag = wants_edu_03
						has_country_flag = wants_edu_04
						has_country_flag = wants_edu_05
					}
				}
				modifier = { #for BRIKS members
					factor = 20
					has_idea = edu_01
					check_variable = { treasury_rate > 5.00 }
					ai_check_briks_gseven = yes
				}
				modifier = { #ABSOLUTELY NO CHANGE IF YOU HAVE REACHED DESIRED LAW
					factor = 0
					NOT = { has_global_flag = GAME_RULE_enabled_hard_economic_ai }
					has_education_law_desired = yes
				}

			}

			modifier = {
				research_speed_factor = 0.05
				production_speed_buildings_factor = 0.02
				experience_gain_factor = 0.02
				stability_factor = 0.01
				foreign_influence_modifier = 0.05
				productivity_growth_modifier = 0.04
			}

			cancel_if_invalid = no
		}
		edu_03 = {
			removal_cost = -1
			level = 3
			available = {
				if = {
					limit = { original_tag = PER }
					custom_trigger_tooltip = {
						tooltip = PER_majlis_block_tt
					}
					NOT = {
						hidden_trigger = {
							has_country_flag = PER_majlis_block
						}
					}
				}
				if = {
					limit = {
						OR = {
							has_idea = edu_04
							has_idea = edu_05
						}
						edu_decrease_blocked = yes
					}
					edu_decrease_blocked = no
				}
				if = {
					limit = {
						OR = {
							has_idea = edu_01
							has_idea = edu_02
						}
						edu_increase_blocked = yes
					}
					edu_increase_blocked = no
				}
			}
			on_add = {
				custom_effect_tooltip = edu_03_TT
				set_variable = { law_attitude = 6 }
				set_variable = { law_change = 3 }
				subtract_from_variable = { law_change = education_budget }
				law_attitude_change = yes
				set_variable = { education_budget = 3 }
				ingame_update_setup = yes
				set_law_vars = yes
				log = "[GetDateText]: [Root.GetName]: add idea edu_03"
				education_law_desire_logger = yes
			}

			ai_will_do = {
				factor = 1
				modifier = {
					factor = 50
					has_idea = edu_04
					ai_has_major_economic_problems = yes
				}
				modifier = {
					factor = 5
					has_idea = edu_04
					ai_has_moderate_economic_problems = yes
				}
				modifier = { ##Totally disregard if have no issues with current spending values
					factor = 0
					has_idea = edu_04
					ai_has_minor_economic_problems = no
					ai_has_major_economic_problems = no
					ai_has_moderate_economic_problems = no
					ai_has_acceptable_deficit = yes
				}
				modifier = {
					factor = 15
					has_idea = edu_04
					has_country_flag = wants_edu_03
				}
				modifier = {
					factor = 20
					has_idea = edu_03
					has_country_flag = wants_edu_03
				}
				modifier = { #Liberal governments less willing
					factor = 0.50
					has_liberal_government_or_in_coalition = yes
				}
				modifier = { # Socialist governments less willing to reduce education spending
					factor = 0.25
					has_socialist_government_or_in_coalition = yes
				}
				modifier = {
					factor = 1.10
					has_idea = edu_02
					has_conservative_government_or_in_coalition = yes
				}
				modifier = { # Make law more appealing to raise if is below desired level
					factor = 10
					has_idea = edu_02
					OR = {
						has_country_flag = wants_edu_03
						has_country_flag = wants_edu_04
						has_country_flag = wants_edu_05
					}
				}
				modifier = { # Make law more appealing to reduce if is above desired level
					factor = 10
					has_idea = edu_04
					OR = {
						has_country_flag = wants_edu_01
						has_country_flag = wants_edu_02
						has_country_flag = wants_edu_03
					}
				}
				modifier = { # no money
					factor = 0
					has_idea = edu_02
					ai_has_deficit = yes
				}
				modifier = { # money? go!
					factor = 10
					has_idea = edu_02
					check_variable = { treasury_rate > 2.00 }
					OR = {
						has_country_flag = wants_edu_03
						has_country_flag = wants_edu_04
						has_country_flag = wants_edu_05
					}
				}
				modifier = { #for BRIKS members
					factor = 20
					has_idea = edu_02
					check_variable = { treasury_rate > 7.00 }
					ai_check_briks_gseven = yes
				}
				modifier = { #ABSOLUTELY NO CHANGE IF YOU HAVE REACHED DESIRED LAW
					factor = 0
					NOT = { has_global_flag = GAME_RULE_enabled_hard_economic_ai }
					has_education_law_desired = yes
				}
			}

			modifier = {
				political_power_cost = 0.05
				foreign_influence_defense_modifier = -0.05
				research_speed_factor = 0.10
				production_speed_buildings_factor = 0.03
				experience_gain_factor = 0.06
				stability_factor = 0.02
				foreign_influence_modifier = 0.10
				productivity_growth_modifier = 0.08
			}

			cancel_if_invalid = no
		}
		edu_04 = {
			cost = 30
			removal_cost = -1
			level = 4
			available = {
				if = {
					limit = { original_tag = PER }
					custom_trigger_tooltip = {
						tooltip = PER_majlis_block_tt
					}
					NOT = {
						hidden_trigger = {
							has_country_flag = PER_majlis_block
						}
					}
				}
				if = {
					limit = {
						OR = {
							has_idea = edu_05
						}
						edu_decrease_blocked = yes
					}
					edu_decrease_blocked = no
				}
				if = {
					limit = {
						OR = {
							has_idea = edu_01
							has_idea = edu_02
							has_idea = edu_03
						}
						edu_increase_blocked = yes
					}
					edu_increase_blocked = no
				}
			}
			on_add = {
				custom_effect_tooltip = edu_04_TT
				set_variable = { law_attitude = 6 }
				set_variable = { law_change = 4 }
				subtract_from_variable = { law_change = education_budget }
				law_attitude_change = yes
				set_variable = { education_budget = 4 }
				ingame_update_setup = yes
				set_law_vars = yes
				log = "[GetDateText]: [Root.GetName]: add idea edu_04"
				education_law_desire_logger = yes
			}

			ai_will_do = {
				factor = 1
				modifier = { # High priority to downsize if major economic problems
					factor = 50
					has_idea = edu_05
					ai_has_major_economic_problems = yes
				}
				modifier = { # Moderate priority to downsize if moderate economic problems
					factor = 5
					has_idea = edu_05
					ai_has_moderate_economic_problems = yes
				}
				modifier = { ##Totally disregard if have no issues with current spending values
					factor = 0
					has_idea = edu_05
					ai_has_minor_economic_problems = no
					ai_has_major_economic_problems = no
					ai_has_moderate_economic_problems = no
					ai_has_acceptable_deficit = yes
				}
				modifier = {
					factor = 15
					has_idea = edu_05
					has_country_flag = wants_edu_04
				}
				modifier = {
					factor = 20
					has_idea = edu_04
					has_country_flag = wants_edu_04
				}
				modifier = { #Liberal governments less willing
					factor = 0.50
					has_liberal_government_or_in_coalition = yes
				}
				modifier = { # Socialist governments less willing to reduce education spending
					factor = 0.25
					has_socialist_government_or_in_coalition = yes
				}
				modifier = {
					factor = 1.10
					has_idea = edu_02
					has_conservative_government_or_in_coalition = yes
				}
				modifier = { # Make law more appealing to raise if is below desired level
					factor = 10
					has_idea = edu_03
					OR = {
						has_country_flag = wants_edu_04
						has_country_flag = wants_edu_05
					}
				}
				modifier = { # Make law more appealing to reduce if is above desired level
					factor = 10
					has_idea = edu_05
					OR = {
						has_country_flag = wants_edu_01
						has_country_flag = wants_edu_02
						has_country_flag = wants_edu_03
						has_country_flag = wants_edu_04
					}
				}
				modifier = { # no money
					factor = 0
					has_idea = edu_03
					ai_has_deficit = yes
				}
				modifier = { # money? go!
					factor = 10
					has_idea = edu_03
					check_variable = { treasury_rate > 3.00 }
					OR = {
						has_country_flag = wants_edu_04
						has_country_flag = wants_edu_05
					}
				}
				modifier = { #for BRIKS members
					factor = 20
					has_idea = edu_03
					check_variable = { treasury_rate > 8.00 }
					ai_check_briks_gseven = yes
				}
				modifier = { #ABSOLUTELY NO CHANGE IF YOU HAVE REACHED DESIRED LAW
					factor = 0
					NOT = { has_global_flag = GAME_RULE_enabled_hard_economic_ai }
					has_education_law_desired = yes
				}
			}

			modifier = {
				political_power_cost = 0.15
				foreign_influence_defense_modifier = -0.10
				research_speed_factor = 0.15
				production_speed_buildings_factor = 0.04
				army_org_factor = 0.03
				experience_gain_factor = 0.10
				stability_factor = 0.03
				foreign_influence_modifier = 0.15
				productivity_growth_modifier = 0.12
			}

			cancel_if_invalid = no
		}
		edu_05 = {
			cost = 10
			removal_cost = -1
			level = 5
			available = {
				if = {
					limit = { original_tag = PER }
					custom_trigger_tooltip = {
						tooltip = PER_majlis_block_tt
					}
					NOT = {
						hidden_trigger = {
							has_country_flag = PER_majlis_block
						}
					}
				}
				if = {
					limit = {
						OR = {
							has_idea = edu_01
							has_idea = edu_02
							has_idea = edu_03
							has_idea = edu_04
						}
						edu_increase_blocked = yes
					}
					edu_increase_blocked = no
				}
			}
			on_add = {
				custom_effect_tooltip = edu_05_TT
				set_variable = { law_attitude = 6 }
				set_variable = { law_change = 5 }
				subtract_from_variable = { law_change = education_budget }
				law_attitude_change = yes
				set_variable = { education_budget = 5 }
				ingame_update_setup = yes
				set_law_vars = yes
				log = "[GetDateText]: [Root.GetName]: add idea edu_05"
				education_law_desire_logger = yes
			}

			ai_will_do = {
				factor = 1
				modifier = { ##Totally disregard if have no issues with current spending values
					factor = 0
					has_idea = edu_04
					ai_has_minor_economic_problems = no
					ai_has_major_economic_problems = no
					ai_has_moderate_economic_problems = no
					ai_has_acceptable_deficit = yes
				}
				modifier = { # Make law more appealing to raise if is below desired level
					factor = 15
					has_idea = edu_04
					has_country_flag = wants_edu_05
				}
				modifier = { # Make law more appealing to keep if is at desired level
					factor = 20
					has_idea = edu_05
					has_country_flag = wants_edu_05
				}
				modifier = { # no money
					factor = 0
					has_idea = edu_04
					ai_has_deficit = yes
				}
				modifier = { # money? go!
					factor = 10
					has_idea = edu_04
					check_variable = { treasury_rate > 4.00 }
					has_country_flag = wants_edu_05
				}
				modifier = { #for BRIKS members
					factor = 20
					has_idea = edu_04
					check_variable = { treasury_rate > 11.00 }
					ai_check_briks_gseven = yes
				}
				modifier = { #ABSOLUTELY NO CHANGE IF YOU HAVE REACHED DESIRED LAW
					factor = 0
					NOT = { has_global_flag = GAME_RULE_enabled_hard_economic_ai }
					has_education_law_desired = yes
				}

			}

			modifier = {
				political_power_cost = 0.20
				foreign_influence_defense_modifier = -0.15
				research_speed_factor = 0.20
				production_speed_buildings_factor = 0.05
				army_org_factor = 0.05
				experience_gain_factor = 0.15
				stability_factor = 0.05
				foreign_influence_modifier = 0.20
				productivity_growth_modifier = 0.16
			}

			cancel_if_invalid = no
		}
	}
	health_budget = {
		law = yes
		use_list_view = yes
		health_01 = {
			cost = 200
			removal_cost = -1
			level = 1
			available = {
				if = {
					limit = { original_tag = PER }
					custom_trigger_tooltip = {
						tooltip = PER_majlis_block_tt
					}
					NOT = {
						hidden_trigger = {
							has_country_flag = PER_majlis_block
						}
					}
				}
				if = {
					limit = {
						OR = {
							has_idea = health_02
							has_idea = health_03
							has_idea = health_04
							has_idea = health_05
							has_idea = health_06
						}
						health_decrease_blocked = yes
					}
					health_decrease_blocked = no
				}
			}
			on_add = {
				custom_effect_tooltip = health_01_TT
				set_variable = { law_attitude = 7 }
				set_variable = { law_change = 1 }
				subtract_from_variable = { law_change = health_budget }
				law_attitude_change = yes
				set_variable = { health_budget = 1 }
				ingame_update_setup = yes
				set_law_vars = yes
				log = "[GetDateText]: [Root.GetName]: add idea health_01 [health_budget idea_law]"
				health_law_desire_trigger = yes
			}

			ai_will_do = {
				factor = 1
				modifier = {
					factor = 50
					has_idea = health_02
					ai_has_major_economic_problems = yes
				}
				modifier = {
					factor = 5
					has_idea = health_02
					ai_has_moderate_economic_problems = yes
				}
				modifier = {
					factor = 0.25
					has_idea = health_02
					ai_has_minor_economic_problems = yes
				}
				modifier = {
					factor = 0
					has_idea = health_02
					ai_has_minor_economic_problems = no
					ai_has_major_economic_problems = no
					ai_has_moderate_economic_problems = no
					ai_has_acceptable_deficit = yes
				}
				modifier = {
					add = 25
					has_idea = health_02
					has_country_flag = wants_health_01
				}
				modifier = { # Socialist governments less willing to reduce health spending
					factor = 0.05
					has_idea = health_02
					has_socialist_government_or_in_coalition = yes
				}
				modifier = {
					factor = 0.10
					has_idea = health_02
					has_liberal_government_or_in_coalition = yes
				}
				modifier = {
					factor = 1.10
					has_idea = health_02
					has_conservative_government_or_in_coalition = yes
				}
				modifier = {
					factor = 1.25
					has_idea = health_02
					has_totalitarian_government_or_in_coalition = yes
				}
				modifier = { # Make law more appealing to reduce if is above desired level
					add = 25
					has_idea = health_02
					has_country_flag = wants_health_01
				}
				modifier = { # Make law more appealing to keep if is at desired level
					factor = 20
					has_idea = health_01
					has_country_flag = wants_health_01
				}
				modifier = {
					factor = 0
					has_health_law_desired = yes
				}
			}

			cancel_if_invalid = no
		}
		health_02 = {
			cost = 80
			default = yes
			removal_cost = -1
			level = 2
			available = {
				if = {
					limit = { original_tag = PER }
					custom_trigger_tooltip = {
						tooltip = PER_majlis_block_tt
					}
					NOT = {
						hidden_trigger = {
							has_country_flag = PER_majlis_block
						}
					}
				}
				if = {
					limit = {
						OR = {
							has_idea = health_03
							has_idea = health_04
							has_idea = health_05
							has_idea = health_06
						}
						health_decrease_blocked = yes
					}
					health_decrease_blocked = no
				}
				if = {
					limit = {
						OR = {
							has_idea = health_01
						}
						health_increase_blocked = yes
					}
					health_increase_blocked = no
				}
			}
			on_add = {
				custom_effect_tooltip = health_02_TT
				set_variable = { law_attitude = 7 }
				set_variable = { law_change = 2 }
				subtract_from_variable = { law_change = health_budget }
				law_attitude_change = yes
				set_variable = { health_budget = 2 }
				ingame_update_setup = yes
				set_law_vars = yes
				log = "[GetDateText]: [Root.GetName]: add idea health_02 [health_budget idea_law]"
				health_law_desire_trigger = yes
			}

			ai_will_do = {
				factor = 1
				modifier = {
					factor = 50
					has_idea = health_03
					ai_has_major_economic_problems = yes
				}
				modifier = {
					factor = 5
					has_idea = health_03
					ai_has_moderate_economic_problems = yes
				}
				modifier = {
					factor = 0
					has_idea = health_03
					ai_has_minor_economic_problems = no
					ai_has_major_economic_problems = no
					ai_has_moderate_economic_problems = no
					ai_has_acceptable_deficit = yes
				}
				modifier = { # Socialist governments less willing to reduce health spending
					factor = 0.05
					has_idea = health_03
					has_socialist_government_or_in_coalition = yes
				}
				modifier = {
					factor = 0.10
					has_idea = health_03
					has_liberal_government_or_in_coalition = yes
				}
				modifier = {
					factor = 1.10
					has_idea = health_03
					has_conservative_government_or_in_coalition = yes
				}
				modifier = {
					factor = 1.25
					has_idea = health_03
					has_totalitarian_government_or_in_coalition = yes
				}
				modifier = { # Make law more appealing to raise if is below desired level
					factor = 10
					has_idea = health_01
					OR = {
						has_country_flag = wants_health_02
						has_country_flag = wants_health_03
						has_country_flag = wants_health_04
						has_country_flag = wants_health_05
						has_country_flag = wants_health_06
					}
				}
				modifier = { # Make law more appealing to reduce if is above desired level
					factor = 10
					has_idea = health_03
					OR = {
						has_country_flag = wants_health_01
						has_country_flag = wants_health_02
					}
				}
				modifier = { # Make law more appealing to keep if is at desired level
					factor = 20
					has_idea = health_02
					has_country_flag = wants_health_02
				}
				modifier = { # no money
					factor = 0
					has_idea = health_01
					ai_has_deficit = yes
				}
				modifier = { # money? go!
					factor = 9
					has_idea = health_01
					check_variable = { treasury_rate > 1.00 }
					OR = {
						has_country_flag = wants_health_02
						has_country_flag = wants_health_03
						has_country_flag = wants_health_04
						has_country_flag = wants_health_05
						has_country_flag = wants_health_06
					}
				}
				modifier = { #for BRIKS members
					factor = 19
					has_idea = health_01
					check_variable = { treasury_rate > 5.00 }
					ai_check_briks_gseven = yes
				}
				modifier = {
					factor = 0
					has_health_law_desired = yes
				}

			}

			modifier = {
				political_power_gain = 0.05
				monthly_population = 0.1
				weekly_casualties_war_support = 0.005
				army_morale_factor = 0.025
				stability_factor = 0.03
			}

			cancel_if_invalid = no
		}
		health_03 = {

			removal_cost = -1
			level = 3
			available = {
				if = {
					limit = { original_tag = PER }
					custom_trigger_tooltip = {
						tooltip = PER_majlis_block_tt
					}
					NOT = {
						hidden_trigger = {
							has_country_flag = PER_majlis_block
						}
					}
				}
				if = {
					limit = {
						OR = {
							has_idea = health_04
							has_idea = health_05
							has_idea = health_06
						}
						health_decrease_blocked = yes
					}
					health_decrease_blocked = no
				}
				if = {
					limit = {
						OR = {
							has_idea = health_01
							has_idea = health_02
						}
						health_increase_blocked = yes
					}
					health_increase_blocked = no
				}
			}
			on_add = {
				custom_effect_tooltip = health_03_TT
				set_variable = { law_attitude = 7 }
				set_variable = { law_change = 3 }
				subtract_from_variable = { law_change = health_budget }
				law_attitude_change = yes
				set_variable = { health_budget = 3 }
				ingame_update_setup = yes
				set_law_vars = yes
				log = "[GetDateText]: [Root.GetName]: add idea health_03 [health_budget idea_law]"
				health_law_desire_trigger = yes
			}

			ai_will_do = {
				factor = 1
				modifier = {
					factor = 50
					has_idea = health_04
					ai_has_major_economic_problems = yes
				}
				modifier = {
					factor = 5
					has_idea = health_04
					ai_has_moderate_economic_problems = yes
				}
				modifier = {
					factor = 0
					has_idea = health_04
					ai_has_minor_economic_problems = no
					ai_has_major_economic_problems = no
					ai_has_moderate_economic_problems = no
					ai_has_acceptable_deficit = yes
				}
				modifier = { # Socialist governments less willing to reduce health spending
					factor = 0.05
					has_idea = health_04
					has_socialist_government_or_in_coalition = yes
				}
				modifier = {
					factor = 0.10
					has_idea = health_04
					has_liberal_government_or_in_coalition = yes
				}
				modifier = {
					factor = 1.10
					has_idea = health_04
					has_conservative_government_or_in_coalition = yes
				}
				modifier = {
					factor = 1.25
					has_idea = health_04
					has_totalitarian_government_or_in_coalition = yes
				}
				modifier = { # Make law more appealing to raise if is below desired level
					factor = 10
					has_idea = health_03
					OR = {
						has_country_flag = wants_health_03
						has_country_flag = wants_health_04
						has_country_flag = wants_health_05
						has_country_flag = wants_health_06
					}
				}
				modifier = { # Make law more appealing to reduce if is above desired level
					factor = 10
					has_idea = health_04
					OR = {
						has_country_flag = wants_health_01
						has_country_flag = wants_health_02
						has_country_flag = wants_health_03
					}
				}
				modifier = { # Make law more appealing to keep if is at desired level
					factor = 20
					has_idea = health_03
					has_country_flag = wants_health_03
				}
				modifier = { # no money
					factor = 0
					has_idea = health_02
					ai_has_deficit = yes
				}
				modifier = { # money? go!
					factor = 9
					has_idea = health_02
					check_variable = { treasury_rate > 2.00 }
					OR = {
						has_country_flag = wants_health_03
						has_country_flag = wants_health_04
						has_country_flag = wants_health_05
						has_country_flag = wants_health_06
					}
				}
				modifier = { #for BRIKS members
					factor = 19
					has_idea = health_02
					check_variable = { treasury_rate > 9.00 }
					ai_check_briks_gseven = yes
				}
				modifier = {
					factor = 0
					has_health_law_desired = yes
				}
			}

			modifier = {
				political_power_gain = 0.1
				monthly_population = 0.25
				weekly_casualties_war_support = 0.010
				army_morale_factor = 0.05
				consumer_goods_factor = -0.01
				stability_factor = 0.06
			}

			cancel_if_invalid = no
		}
		health_04 = {
			cost = 40
			removal_cost = -1
			level = 4
			available = {
				if = {
					limit = { original_tag = PER }
					custom_trigger_tooltip = {
						tooltip = PER_majlis_block_tt
					}
					NOT = {
						hidden_trigger = {
							has_country_flag = PER_majlis_block
						}
					}
				}
				if = {
					limit = {
						OR = {
							has_idea = health_05
							has_idea = health_06
						}
						health_decrease_blocked = yes
					}
					health_decrease_blocked = no
				}
				if = {
					limit = {
						OR = {
							has_idea = health_01
							has_idea = health_02
							has_idea = health_03
						}
						health_increase_blocked = yes
					}
					health_increase_blocked = no
				}
			}
			on_add = {
				custom_effect_tooltip = health_04_TT
				set_variable = { law_attitude = 7 }
				set_variable = { law_change = 4 }
				subtract_from_variable = { law_change = health_budget }
				law_attitude_change = yes
				set_variable = { health_budget = 4 }
				ingame_update_setup = yes
				set_law_vars = yes
				log = "[GetDateText]: [Root.GetName]: add idea health_04 [health_budget idea_law]"
				health_law_desire_trigger = yes
			}

			ai_will_do = {
				factor = 1
				modifier = {
					factor = 50
					has_idea = health_05
					ai_has_major_economic_problems = yes
				}
				modifier = {
					factor = 5
					has_idea = health_05
					ai_has_moderate_economic_problems = yes
				}
				modifier = {
					factor = 0
					has_idea = health_05
					ai_has_minor_economic_problems = no
					ai_has_major_economic_problems = no
					ai_has_moderate_economic_problems = no
					ai_has_acceptable_deficit = yes
				}
				modifier = { # Socialist governments less willing to reduce health spending
					factor = 0.05
					has_idea = health_05
					has_socialist_government_or_in_coalition = yes
				}
				modifier = {
					factor = 0.10
					has_idea = health_05
					has_liberal_government_or_in_coalition = yes
				}
				modifier = {
					factor = 1.10
					has_idea = health_05
					has_conservative_government_or_in_coalition = yes
				}
				modifier = {
					factor = 1.25
					has_idea = health_05
					has_totalitarian_government_or_in_coalition = yes
				}
				modifier = { # Make law more appealing to raise if is below desired level
					factor = 10
					has_idea = health_03
					OR = {
						has_country_flag = wants_health_04
						has_country_flag = wants_health_05
						has_country_flag = wants_health_06
					}
				}
				modifier = { # Make law more appealing to reduce if is above desired level
					factor = 10
					has_idea = health_05
					OR = {
						has_country_flag = wants_health_01
						has_country_flag = wants_health_02
						has_country_flag = wants_health_03
						has_country_flag = wants_health_04
					}
				}
				modifier = { # Make law more appealing to keep if is at desired level
					factor = 20
					has_idea = health_04
					has_country_flag = wants_health_04
				}
				modifier = { # no money
					factor = 0
					has_idea = health_03
					ai_has_deficit = yes
				}
				modifier = { # money? go!
					factor = 9
					has_idea = health_03
					check_variable = { treasury_rate > 3.00 }
					OR = {
						has_country_flag = wants_health_04
						has_country_flag = wants_health_05
						has_country_flag = wants_health_06
					}
				}
				modifier = { #for BRIKS members
					factor = 19
					has_idea = health_03
					check_variable = { treasury_rate > 13.00 }
					ai_check_briks_gseven = yes
				}
				modifier = {
					factor = 0
					has_health_law_desired = yes
				}
			}

			modifier = {
				political_power_gain = 0.15
				monthly_population = 0.40
				weekly_casualties_war_support = 0.015
				army_morale_factor = 0.075
				consumer_goods_factor = -0.02
				stability_factor = 0.09
			}

			cancel_if_invalid = no
		}
		health_05 = {
			cost = 30
			removal_cost = -1
			level = 5
			available = {
				if = {
					limit = { original_tag = PER }
					custom_trigger_tooltip = {
						tooltip = PER_majlis_block_tt
					}
					NOT = {
						hidden_trigger = {
							has_country_flag = PER_majlis_block
						}
					}
				}
				if = {
					limit = {
						OR = {
							has_idea = health_06
						}
						health_decrease_blocked = yes
					}
					health_decrease_blocked = no
				}
				if = {
					limit = {
						OR = {
							has_idea = health_01
							has_idea = health_02
							has_idea = health_03
							has_idea = health_04
						}
						health_increase_blocked = yes
					}
					health_increase_blocked = no
				}
				if = {
					limit = { original_tag = ENG }
					NOT = { has_idea = ENG_idea_privatized_nhs }
				}
			}
			on_add = {
				custom_effect_tooltip = health_05_TT
				set_variable = { law_attitude = 7 }
				set_variable = { law_change = 5 }
				subtract_from_variable = { law_change = health_budget }
				law_attitude_change = yes
				set_variable = { health_budget = 5 }
				ingame_update_setup = yes
				set_law_vars = yes
				log = "[GetDateText]: [Root.GetName]: add idea health_05 [health_budget idea_law]"
				health_law_desire_trigger = yes
			}

			ai_will_do = {
				factor = 1
				modifier = {
					factor = 50
					has_idea = health_06
					ai_has_major_economic_problems = yes
				}
				modifier = {
					factor = 5
					has_idea = health_06
					ai_has_moderate_economic_problems = yes
				}
				modifier = {
					factor = 0
					has_idea = health_06
					ai_has_minor_economic_problems = no
					ai_has_major_economic_problems = no
					ai_has_moderate_economic_problems = no
					ai_has_acceptable_deficit = yes
				}
				modifier = { # Socialist governments less willing to reduce health spending
					factor = 0.05
					has_idea = health_06
					has_socialist_government_or_in_coalition = yes
				}
				modifier = {
					factor = 0.10
					has_idea = health_06
					has_liberal_government_or_in_coalition = yes
				}
				modifier = {
					factor = 1.10
					has_idea = health_06
					has_conservative_government_or_in_coalition = yes
				}
				modifier = {
					factor = 1.25
					has_idea = health_06
					has_totalitarian_government_or_in_coalition = yes
				}
				modifier = { # Make law more appealing to raise if is below desired level
					factor = 10
					has_idea = health_04
					OR = {
						has_country_flag = wants_health_05
						has_country_flag = wants_health_06
					}
				}
				modifier = { # Make law more appealing to reduce if is above desired level
					factor = 10
					has_idea = health_06
					OR = {
						has_country_flag = wants_health_01
						has_country_flag = wants_health_02
						has_country_flag = wants_health_03
						has_country_flag = wants_health_04
						has_country_flag = wants_health_05
					}
				}
				modifier = { # Make law more appealing to keep if is at desired level
					factor = 20
					has_idea = health_05
					has_country_flag = wants_health_05
				}
				modifier = { # no money
					factor = 0
					has_idea = health_04
					ai_has_deficit = yes
				}
				modifier = { # money? go!
					factor = 9
					has_idea = health_04
					check_variable = { treasury_rate > 5.00 }
					OR = {
						has_country_flag = wants_health_05
						has_country_flag = wants_health_06
					}
				}
				modifier = { #for BRIKS members
					factor = 19
					has_idea = health_04
					check_variable = { treasury_rate > 15.00 }
					ai_check_briks_gseven = yes
				}
				modifier = {
					factor = 0
					has_health_law_desired = yes
				}
			}

			modifier = {
				political_power_gain = 0.2
				monthly_population = 0.55
				weekly_casualties_war_support = 0.020
				army_morale_factor = 0.100
				consumer_goods_factor = -0.03
				stability_factor = 0.12
			}

			cancel_if_invalid = no
		}
		health_06 = {
			cost = 10
			removal_cost = -1
			level = 6
			available = {
				if = {
					limit = { original_tag = PER }
					custom_trigger_tooltip = {
						tooltip = PER_majlis_block_tt
					}
					NOT = {
						hidden_trigger = {
							has_country_flag = PER_majlis_block
						}
					}
				}
				if = {
					limit = {
						OR = {
							has_idea = health_01
							has_idea = health_02
							has_idea = health_03
							has_idea = health_04
							has_idea = health_05
						}
						health_increase_blocked = yes
					}
					health_increase_blocked = no
				}
				if = {
					limit = { original_tag = ENG }
					NOT = { has_idea = ENG_idea_privatized_nhs }
				}
			}
			on_add = {
				custom_effect_tooltip = health_06_TT
				set_variable = { law_attitude = 7 }
				set_variable = { law_change = 6 }
				subtract_from_variable = { law_change = health_budget }
				law_attitude_change = yes
				set_variable = { health_budget = 6 }
				ingame_update_setup = yes
				set_law_vars = yes
				log = "[GetDateText]: [Root.GetName]: add idea health_06 [health_budget idea_law]"
				health_law_desire_trigger = yes
			}

			ai_will_do = {
				factor = 1
				modifier = {
					factor = 0
					has_idea = health_05
					ai_has_minor_economic_problems = no
					ai_has_major_economic_problems = no
					ai_has_moderate_economic_problems = no
					ai_has_acceptable_deficit = yes
				}
				modifier = { # Socialist governments less willing to reduce health spending
					factor = 1.30
					has_idea = health_05
					has_socialist_government_or_in_coalition = yes
				}
				modifier = {
					factor = 1.10
					has_idea = health_05
					has_liberal_government_or_in_coalition = yes
				}
				modifier = {
					factor = 20
					has_idea = health_05
					has_country_flag = wants_health_05
				}
				modifier = { # Make law more appealing to keep if is at desired level
					factor = 20
					has_idea = health_06
					has_country_flag = wants_health_06
				}
				modifier = { # no money
					factor = 0
					has_idea = health_05
					ai_has_deficit = yes
				}
				modifier = { # money? go!
					factor = 9
					has_idea = health_05
					check_variable = { treasury_rate > 6.00 }
					has_country_flag = wants_health_06
				}
				modifier = { #for BRIKS members
					factor = 19
					has_idea = health_05
					check_variable = { treasury_rate > 18.00 }
					ai_check_briks_gseven = yes
				}
				modifier = {
					factor = 0
					has_health_law_desired = yes
				}
			}

			modifier = {
				political_power_gain = 0.25
				monthly_population = 0.75
				weekly_casualties_war_support = 0.025
				army_morale_factor = 0.125
				consumer_goods_factor = -0.04
				stability_factor = 0.15
			}

			cancel_if_invalid = no
		}
	}
	social_budget = {
		law = yes
		use_list_view = yes

		social_01 = {
			cost = 200
			removal_cost = -1
			level = 1
			available = {
				if = {
					limit = { original_tag = PER }
					custom_trigger_tooltip = {
						tooltip = PER_majlis_block_tt
					}
					NOT = {
						hidden_trigger = {
							has_country_flag = PER_majlis_block
						}
					}
				}
				if = {
					limit = {
						OR = {
							has_idea = social_02
							has_idea = social_03
							has_idea = social_04
							has_idea = social_05
							has_idea = social_06
						}
						social_decrease_blocked = yes
					}
					social_decrease_blocked = no
				}
				if = { limit = { original_tag = DEN }
					if = {
						limit = { has_idea = DEN_intensify_the_flexicurity_idea }
						custom_trigger_tooltip = {
							tooltip = DEN_intensify_the_flexicurity_idea_trigger_tt
							NOT = { has_idea = DEN_intensify_the_flexicurity_idea }
						}
					}
				}
			}
			on_add = {
				custom_effect_tooltip = social_01_TT

				set_variable = { law_attitude = 8 }
				set_variable = { law_change = 1 }
				subtract_from_variable = { law_change = social_budget }
				law_attitude_change = yes
				set_variable = { social_budget = 1 }
				ingame_update_setup = yes
				set_law_vars = yes
				log = "[GetDateText]: [Root.GetName]: add idea social_01 [social_budget idea_law]"
				social_law_desire_trigger = yes
			}

			cancel_if_invalid = no

			ai_will_do = {
				factor = 1
				modifier = {
					factor = 50
					has_idea = social_02
					ai_has_major_economic_problems = yes
				}
				modifier = {
					factor = 5
					has_idea = social_02
					ai_has_moderate_economic_problems = yes
				}
				modifier = {
					factor = 0
					has_idea = social_02
					ai_has_minor_economic_problems = no
					ai_has_major_economic_problems = no
					ai_has_moderate_economic_problems = no
					ai_has_acceptable_deficit = yes
				}
				modifier = { # Socialist governments less willing to reduce health spending
					factor = 0.05
					has_idea = social_02
					has_socialist_government_or_in_coalition = yes
				}
				modifier = {
					factor = 0.10
					has_idea = social_02
					has_liberal_government_or_in_coalition = yes
				}
				modifier = {
					factor = 1.10
					has_idea = social_02
					has_conservative_government_or_in_coalition = yes
				}
				modifier = {
					factor = 1.25
					has_idea = social_02
					has_totalitarian_government_or_in_coalition = yes
				}
				modifier = { # Make law more appealing to reduce if is above desired level
					factor = 10
					has_idea = social_02
					has_country_flag = wants_social_01
				}
				modifier = {
					factor = 10
					has_idea = social_01
					has_country_flag = wants_social_01
				}
				modifier = {
					factor = 0
					has_social_law_desired = yes
				}
			}

		}
		social_02 = {
			default = yes
			cost = 80
			removal_cost = -1
			level = 2
			available = {
				if = {
					limit = { original_tag = PER }
					custom_trigger_tooltip = {
						tooltip = PER_majlis_block_tt
					}
					NOT = {
						hidden_trigger = {
							has_country_flag = PER_majlis_block
						}
					}
				}
				if = {
					limit = {
						OR = {
							has_idea = social_03
							has_idea = social_04
							has_idea = social_05
							has_idea = social_06
						}
						social_decrease_blocked = yes
					}
					social_decrease_blocked = no
				}
				if = {
					limit = {
						OR = {
							has_idea = social_01
						}
						social_increase_blocked = yes
					}
					social_increase_blocked = no
				}
			}
			on_add = {
				custom_effect_tooltip = social_02_TT

				set_variable = { law_attitude = 8 }
				set_variable = { law_change = 2 }
				subtract_from_variable = { law_change = social_budget }
				law_attitude_change = yes
				set_variable = { social_budget = 2 }
				ingame_update_setup = yes
				set_law_vars = yes
				log = "[GetDateText]: [Root.GetName]: add idea social_02 [social_budget idea_law]"
				social_law_desire_trigger = yes
			}

			modifier = {
				political_power_gain = 0.06
				political_power_factor = 0.10
				stability_factor = 0.03
				high_unemployment_threshold_modifier = 0.01
			}

			cancel_if_invalid = no

			ai_will_do = {
				factor = 1
				modifier = {
					factor = 50
					has_idea = social_03
					ai_has_major_economic_problems = yes
				}
				modifier = {
					factor = 5
					has_idea = social_03
					ai_has_moderate_economic_problems = yes
				}
				modifier = {
					factor = 0
					has_idea = social_03
					ai_has_minor_economic_problems = no
					ai_has_major_economic_problems = no
					ai_has_moderate_economic_problems = no
					ai_has_acceptable_deficit = yes
				}
				modifier = { # Socialist governments less willing to reduce health spending
					factor = 0.05
					has_idea = social_03
					has_socialist_government_or_in_coalition = yes
				}
				modifier = {
					factor = 0.10
					has_idea = social_03
					has_liberal_government_or_in_coalition = yes
				}
				modifier = {
					factor = 1.10
					has_idea = social_03
					has_conservative_government_or_in_coalition = yes
				}
				modifier = {
					factor = 1.25
					has_idea = social_03
					has_totalitarian_government_or_in_coalition = yes
				}
				modifier = { # Make law more appealing to raise if is below desired level
					factor = 10
					has_idea = social_01
					OR = {
						has_country_flag = wants_social_02
						has_country_flag = wants_social_03
						has_country_flag = wants_social_04
						has_country_flag = wants_social_05
						has_country_flag = wants_social_06
					}
				}
				modifier = { # Make law more appealing to reduce if is above desired level
					factor = 10
					has_idea = social_03
					OR = {
						has_country_flag = wants_social_01
						has_country_flag = wants_social_02
					}
				}
				modifier = {
					factor = 20
					has_idea = social_02
					has_country_flag = wants_social_02
				}
				modifier = { # no money
					factor = 0
					has_idea = social_01
					ai_has_deficit = yes
				}
				modifier = { # money? go!
					factor = 8
					has_idea = social_01
					check_variable = { treasury_rate > 1.00 }
					OR = {
						has_country_flag = wants_social_02
						has_country_flag = wants_social_03
						has_country_flag = wants_social_04
						has_country_flag = wants_social_05
						has_country_flag = wants_social_06
					}
				}
				modifier = { #for BRICS members
					factor = 18
					has_idea = social_01
					check_variable = { treasury_rate > 6.00 }
					ai_check_briks_gseven = yes
				}
				modifier = {
					factor = 0
					has_social_law_desired = yes
				}
				modifier = {
					add = 50
					has_idea = social_01
					set_temp_variable = { unemployment_threshold_twice = unemployment_threshold_display_var }
					multiply_temp_variable = { unemployment_threshold_twice = 2 }
					check_variable = { total_unemployed_percentage_display > unemployment_threshold_twice }
				}
			}
		}
		social_03 = {
			removal_cost = -1
			level = 3
			available = {
				if = {
					limit = { original_tag = PER }
					custom_trigger_tooltip = {
						tooltip = PER_majlis_block_tt
					}
					NOT = {
						hidden_trigger = {
							has_country_flag = PER_majlis_block
						}
					}
				}
				if = {
					limit = {
						OR = {
							has_idea = social_04
							has_idea = social_05
							has_idea = social_06
						}
						social_decrease_blocked = yes
					}
					social_decrease_blocked = no
				}
				if = {
					limit = {
						OR = {
							has_idea = social_01
							has_idea = social_02
						}
						social_increase_blocked = yes
					}
					social_increase_blocked = no
				}
			}
			on_add = {
				custom_effect_tooltip = social_03_TT

				set_variable = { law_attitude = 8 }
				set_variable = { law_change = 3 }
				subtract_from_variable = { law_change = social_budget }
				law_attitude_change = yes
				set_variable = { social_budget = 3 }
				ingame_update_setup = yes
				set_law_vars = yes
				log = "[GetDateText]: [Root.GetName]: add idea social_03 [social_budget idea_law]"
				social_law_desire_trigger = yes
			}

			modifier = {
				political_power_gain = 0.14
				political_power_factor = 0.14
				stability_factor = 0.06
				high_unemployment_threshold_modifier = 0.02
			}

			cancel_if_invalid = no

			ai_will_do = {
				factor = 1
				modifier = {
					factor = 50
					has_idea = social_04
					ai_has_major_economic_problems = yes
				}
				modifier = {
					factor = 5
					has_idea = social_04
					ai_has_moderate_economic_problems = yes
				}
				modifier = {
					factor = 0
					has_idea = social_04
					ai_has_minor_economic_problems = no
					ai_has_major_economic_problems = no
					ai_has_moderate_economic_problems = no
					ai_has_acceptable_deficit = yes
				}
				modifier = { # Socialist governments less willing to reduce health spending
					factor = 0.05
					has_idea = social_04
					has_socialist_government_or_in_coalition = yes
				}
				modifier = {
					factor = 0.10
					has_idea = social_04
					has_liberal_government_or_in_coalition = yes
				}
				modifier = {
					factor = 1.10
					has_idea = social_04
					has_conservative_government_or_in_coalition = yes
				}
				modifier = {
					factor = 1.25
					has_idea = social_04
					has_totalitarian_government_or_in_coalition = yes
				}
				modifier = { # Make law more appealing to raise if is below desired level
					factor = 10
					has_idea = social_02
					OR = {
						has_country_flag = wants_social_02
						has_country_flag = wants_social_03
						has_country_flag = wants_social_04
						has_country_flag = wants_social_05
						has_country_flag = wants_social_06
					}
				}
				modifier = { # Make law more appealing to reduce if is above desired level
					factor = 10
					has_idea = social_04
					OR = {
						has_country_flag = wants_social_01
						has_country_flag = wants_social_02
						has_country_flag = wants_social_03
					}
				}
				modifier = {
					factor = 20
					has_idea = social_03
					has_country_flag = wants_social_03
				}
				modifier = { # no money
					factor = 0
					has_idea = social_02
					ai_has_deficit = yes
				}
				modifier = { # money? go!
					factor = 8
					has_idea = social_02
					check_variable = { treasury_rate > 2.00 }
					OR = {
						has_country_flag = wants_social_03
						has_country_flag = wants_social_04
						has_country_flag = wants_social_05
						has_country_flag = wants_social_06
					}
				}
				modifier = { #for BRIKS members
					factor = 18
					has_idea = social_02
					check_variable = { treasury_rate > 9.00 }
					ai_check_briks_gseven = yes
				}
				modifier = {
					factor = 0
					has_social_law_desired = yes
				}
				modifier = {
					add = 50
					has_idea = social_02
					set_temp_variable = { unemployment_threshold_twice = unemployment_threshold_display_var }
					multiply_temp_variable = { unemployment_threshold_twice = 2 }
					check_variable = { total_unemployed_percentage_display > unemployment_threshold_twice }
				}
			}
		}
		social_04 = {
			cost = 40
			removal_cost = -1
			level = 4
			available = {
				if = {
					limit = { original_tag = PER }
					custom_trigger_tooltip = {
						tooltip = PER_majlis_block_tt
					}
					NOT = {
						hidden_trigger = {
							has_country_flag = PER_majlis_block
						}
					}
				}
				if = {
					limit = {
						OR = {
							has_idea = social_05
							has_idea = social_06
						}
						social_decrease_blocked = yes
					}
					social_decrease_blocked = no
				}
				if = {
					limit = {
						OR = {
							has_idea = social_01
							has_idea = social_02
							has_idea = social_03
						}
						social_increase_blocked = yes
					}
					social_increase_blocked = no
				}
			}
			on_add = {
				custom_effect_tooltip = social_04_TT

				set_variable = { law_attitude = 8 }
				set_variable = { law_change = 4 }
				subtract_from_variable = { law_change = social_budget }
				law_attitude_change = yes
				set_variable = { social_budget = 4 }
				ingame_update_setup = yes
				set_law_vars = yes
				log = "[GetDateText]: [Root.GetName]: add idea social_04 [social_budget idea_law]"
				social_law_desire_trigger = yes
			}

			modifier = {
				political_power_gain = 0.20
				political_power_factor = 0.20
				monthly_population = 0.05
				stability_factor = 0.09
				high_unemployment_threshold_modifier = 0.03
			}

			cancel_if_invalid = no

			ai_will_do = {
				factor = 1
				modifier = {
					factor = 50
					has_idea = social_05
					ai_has_major_economic_problems = yes
				}
				modifier = {
					factor = 5
					has_idea = social_05
					ai_has_moderate_economic_problems = yes
				}
				modifier = {
					factor = 0
					has_idea = social_05
					ai_has_minor_economic_problems = no
					ai_has_major_economic_problems = no
					ai_has_moderate_economic_problems = no
					ai_has_acceptable_deficit = yes
				}
				modifier = { # Socialist governments less willing to reduce health spending
					factor = 0.05
					has_idea = social_05
					has_socialist_government_or_in_coalition = yes
				}
				modifier = {
					factor = 0.10
					has_idea = social_05
					has_liberal_government_or_in_coalition = yes
				}
				modifier = {
					factor = 1.10
					has_idea = social_05
					has_conservative_government_or_in_coalition = yes
				}
				modifier = {
					factor = 1.25
					has_idea = social_05
					has_totalitarian_government_or_in_coalition = yes
				}
				modifier = { # Make law more appealing to raise if is below desired level
					factor = 10
					has_idea = social_03
					OR = {
						has_country_flag = wants_social_02
						has_country_flag = wants_social_03
						has_country_flag = wants_social_04
						has_country_flag = wants_social_05
						has_country_flag = wants_social_06
					}
				}
				modifier = { # Make law more appealing to reduce if is above desired level
					factor = 10
					has_idea = social_05
					OR = {
						has_country_flag = wants_social_01
						has_country_flag = wants_social_02
						has_country_flag = wants_social_03
						has_country_flag = wants_social_04
					}
				}
				modifier = {
					factor = 20
					has_idea = social_04
					has_country_flag = wants_social_04
				}
				modifier = { # no money
					factor = 0
					has_idea = social_03
					ai_has_deficit = yes
				}
				modifier = { # money? go!
					factor = 8
					has_idea = social_03
					check_variable = { treasury_rate > 4.00 }
					OR = {
						has_country_flag = wants_social_04
						has_country_flag = wants_social_05
						has_country_flag = wants_social_06
					}
				}
				modifier = { #for BRIKS members
					factor = 18
					has_idea = social_03
					check_variable = { treasury_rate > 11.00 }
					ai_check_briks_gseven = yes
				}
				modifier = {
					factor = 0
					has_social_law_desired = yes
				}
				modifier = {
					add = 50
					has_idea = social_04
					set_temp_variable = { unemployment_threshold_twice = unemployment_threshold_display_var }
					multiply_temp_variable = { unemployment_threshold_twice = 2 }
					check_variable = { total_unemployed_percentage_display > unemployment_threshold_twice }
				}
			}
		}
		social_05 = {
			cost = 30
			removal_cost = -1
			level = 5
			available = {
				if = {
					limit = { original_tag = PER }
					custom_trigger_tooltip = {
						tooltip = PER_majlis_block_tt
					}
					NOT = {
						hidden_trigger = {
							has_country_flag = PER_majlis_block
						}
					}
				}
				if = {
					limit = {
						OR = {
							has_idea = social_06
						}
						social_decrease_blocked = yes
					}
					social_decrease_blocked = no
				}
				if = {
					limit = {
						OR = {
							has_idea = social_01
							has_idea = social_02
							has_idea = social_03
							has_idea = social_04
						}
						social_increase_blocked = yes
					}
					social_increase_blocked = no
				}
			}
			on_add = {
				custom_effect_tooltip = social_05_TT

				set_variable = { law_attitude = 8 }
				set_variable = { law_change = 5 }
				subtract_from_variable = { law_change = social_budget }
				law_attitude_change = yes
				set_variable = { social_budget = 5 }
				ingame_update_setup = yes
				set_law_vars = yes
				log = "[GetDateText]: [Root.GetName]: add idea social_05 [social_budget idea_law]"
				social_law_desire_trigger = yes
			}

			modifier = {
				political_power_gain = 0.24
				political_power_factor = 0.24
				monthly_population = 0.15
				stability_factor = 0.12
				high_unemployment_threshold_modifier = 0.04
			}

			cancel_if_invalid = no

			ai_will_do = {
				factor = 1
				modifier = {
					factor = 50
					has_idea = social_06
					ai_has_major_economic_problems = yes
				}
				modifier = {
					factor = 5
					has_idea = social_06
					ai_has_moderate_economic_problems = yes
				}
				modifier = {
					factor = 0
					has_idea = social_06
					ai_has_minor_economic_problems = no
					ai_has_major_economic_problems = no
					ai_has_moderate_economic_problems = no
					ai_has_acceptable_deficit = yes
				}
				modifier = { # Socialist governments less willing to reduce health spending
					factor = 0.05
					has_idea = social_06
					has_socialist_government_or_in_coalition = yes
				}
				modifier = {
					factor = 0.10
					has_idea = social_06
					has_liberal_government_or_in_coalition = yes
				}
				modifier = {
					factor = 1.10
					has_idea = social_06
					has_conservative_government_or_in_coalition = yes
				}
				modifier = {
					factor = 1.25
					has_idea = social_06
					has_totalitarian_government_or_in_coalition = yes
				}
				modifier = { # Make law more appealing to raise if is below desired level
					factor = 10
					has_idea = social_04
					OR = {
						has_country_flag = wants_social_02
						has_country_flag = wants_social_03
						has_country_flag = wants_social_04
						has_country_flag = wants_social_05
						has_country_flag = wants_social_06
					}
				}
				modifier = { # Make law more appealing to reduce if is above desired level
					factor = 10
					has_idea = social_06
					OR = {
						has_country_flag = wants_social_01
						has_country_flag = wants_social_02
						has_country_flag = wants_social_03
						has_country_flag = wants_social_04
						has_country_flag = wants_social_05
					}
				}
				modifier = {
					factor = 20
					has_idea = social_05
					has_country_flag = wants_social_05
				}
				modifier = { # no money
					factor = 0
					has_idea = social_04
					ai_has_deficit = yes
				}
				modifier = { # money? go!
					factor = 8
					has_idea = social_04
					check_variable = { treasury_rate > 5.00 }
					OR = {
						has_country_flag = wants_social_05
						has_country_flag = wants_social_06
					}
				}
				modifier = { #for BRIKS members
					factor = 18
					has_idea = social_04
					check_variable = { treasury_rate > 14.00 }
					ai_check_briks_gseven = yes
				}
				modifier = {
					factor = 0
					has_social_law_desired = yes
				}
				modifier = {
					add = 50
					has_idea = social_05
					set_temp_variable = { unemployment_threshold_twice = unemployment_threshold_display_var }
					multiply_temp_variable = { unemployment_threshold_twice = 2 }
					check_variable = { total_unemployed_percentage_display > unemployment_threshold_twice }
				}
			}
		}
		social_06 = {
			cost = 10
			removal_cost = -1
			level = 6
			available = {
				if = {
					limit = { original_tag = PER }
					custom_trigger_tooltip = {
						tooltip = PER_majlis_block_tt
					}
					NOT = {
						hidden_trigger = {
							has_country_flag = PER_majlis_block
						}
					}
				}
				if = {
					limit = {
						OR = {
							has_idea = social_01
							has_idea = social_02
							has_idea = social_03
							has_idea = social_04
							has_idea = social_05
						}
						social_increase_blocked = yes
					}
					social_increase_blocked = no
				}
			}
			on_add = {
				custom_effect_tooltip = social_06_TT

				set_variable = { law_attitude = 8 }
				set_variable = { law_change = 6 }
				subtract_from_variable = { law_change = social_budget }
				law_attitude_change = yes
				set_variable = { social_budget = 6 }
				ingame_update_setup = yes
				set_law_vars = yes
				log = "[GetDateText]: [Root.GetName]: add idea social_06 [social_budget idea_law]"
				social_law_desire_trigger = yes
			}

			modifier = {
				political_power_gain = 0.3
				political_power_factor = 0.3
				monthly_population = 0.30
				stability_factor = 0.15
				high_unemployment_threshold_modifier = 0.05
			}

			cancel_if_invalid = no

			ai_will_do = {
				factor = 1
				modifier = {
					factor = 0
					has_idea = social_05
					ai_has_minor_economic_problems = no
					ai_has_major_economic_problems = no
					ai_has_moderate_economic_problems = no
					ai_has_acceptable_deficit = yes
				}
				modifier = { # Socialist governments less willing to reduce health spending
					factor = 1.30
					has_idea = social_05
					has_socialist_government_or_in_coalition = yes
				}
				modifier = {
					factor = 1.10
					has_idea = social_05
					has_liberal_government_or_in_coalition = yes
				}
				modifier = { # Make law more appealing to raise if is below desired level
					factor = 20
					has_idea = social_05
					has_country_flag = wants_social_06
				}
				modifier = {
					factor = 20
					has_idea = social_06
					has_country_flag = wants_social_06
				}
				modifier = { # no money
					factor = 0
					has_idea = social_05
					ai_has_deficit = yes
				}
				modifier = { # money? go!
					factor = 8
					has_idea = social_05
					check_variable = { treasury_rate > 6.00 }
					has_country_flag = wants_social_06
				}
				modifier = { #for BRIKS members
					factor = 18
					has_idea = social_05
					check_variable = { treasury_rate > 18.00 }
					ai_check_briks_gseven = yes
				}
				modifier = {
					factor = 0
					has_social_law_desired = yes
				}
				modifier = {
					add = 50
					has_idea = social_05
					set_temp_variable = { unemployment_threshold_twice = unemployment_threshold_display_var }
					multiply_temp_variable = { unemployment_threshold_twice = 2 }
					check_variable = { total_unemployed_percentage_display > unemployment_threshold_twice }
				}
			}
		}
	}
}
