
ideas = {
	country = {
		Non_State_Actor = {
			on_add = { log = "[GetDateText]: [Root.GetName]: add idea Non_State_Actor" }

			picture = non_state_actor

			modifier = {
				research_speed_factor = -0.2
				political_power_factor = -0.1
				trade_opinion_factor = -0.25
				tax_gain_multiplier_modifier = -0.05
				ai_get_ally_desire_factor = -1000
			}
		}

		Lacks_International_Recognition = {
			on_add = { log = "[GetDateText]: [Root.GetName]: add idea Lacks_International_Recognition" }

			picture = lacks_international_recognition

			modifier = {
				political_power_factor = -0.05
				trade_opinion_factor = -0.1
			}
		}

		rival_government = {
			on_add = { log = "[GetDateText]: [Root.GetName]: add idea rival_government" }

			picture = rival_government

			modifier = {
				political_power_factor = -0.15
				Foreign_Intervention_Law_cost_factor = 0.25
				trade_opinion_factor = -0.15
			}
		}
	}
}