ideas = {
	country = {
		IRQ_recovering_from_the_gulf_war = {
			on_add = { log = "[GetDateText]: [Root.GetName]: add idea IRQ_recovering_from_the_gulf_war" }
			picture = gulf_war_dam
			cancel = {
				NOT = {
					nationalist_fascist_are_in_power = yes
				}
			}
			allowed_civil_war = { always = no }
			modifier = {
				army_org_factor = -0.20
				army_defence_factor = -0.15
				send_volunteers_tension = 0.25
			}
		}

		IRQ_recovering_from_the_gulf_war2 = {
			on_add = { log = "[GetDateText]: [Root.GetName]: add idea IRQ_recovering_from_the_gulf_war" }
			picture = gulf_war_dam
			cancel = {
				NOT = {
					nationalist_fascist_are_in_power = yes
				}
			}
			allowed_civil_war = { always = no }
			name = IRQ_recovering_from_the_gulf_war
			modifier = {
				army_org_factor = -0.10
				army_defence_factor = -0.10
				send_volunteers_tension = 0.15
			}
		}

		IRQ_recovering_from_the_gulf_war3 = {
			on_add = { log = "[GetDateText]: [Root.GetName]: add idea IRQ_recovering_from_the_gulf_war" }
			picture = gulf_war_dam
			cancel = {
				NOT = {
					nationalist_fascist_are_in_power = yes
				}
			}
			allowed_civil_war = { always = no }
			name = IRQ_recovering_from_the_gulf_war
			modifier = {
				army_org_factor = -0.05
				army_defence_factor = -0.05
				send_volunteers_tension = 0.10
			}
		}
		IRQ_MEK_bases = {
			on_add = { log = "[GetDateText]: [Root.GetName]: add idea IRQ_MEK_bases" }
			picture = MEK_bases
			cancel = {
				NOT = {
					nationalist_fascist_are_in_power = yes
				}
			}
			allowed_civil_war = { always = no }

			modifier = {
				send_volunteer_size = 1
				army_leader_cost_factor = -0.10
			}
		}
		IRQ_MEK_bases2 = {
			on_add = { log = "[GetDateText]: [Root.GetName]: add idea IRQ_MEK_bases2" }
			picture = MEK_bases
			cancel = {
				NOT = {
					nationalist_fascist_are_in_power = yes
				}
			}
			allowed_civil_war = { always = no }
			name = IRQ_MEK_bases
			modifier = {
				send_volunteer_size = 2
				army_leader_cost_factor = -0.15
			}
			targeted_modifier = {
				tag = PER
				attack_bonus_against = 0.10
				defense_bonus_against = 0.15
			}
		}
		IRQ_high_political_opposition = {
			on_add = { log = "[GetDateText]: [Root.GetName]: add idea IRQ_high_political_opposition" }
			picture = parliament_burn
			cancel = {
				NOT = {
					nationalist_fascist_are_in_power = yes
				}
			}
			allowed_civil_war = { always = no }

			modifier = {
				stability_factor = -0.10
				war_support_factor = -0.175
				political_power_factor = -0.15
			}
		}
		IRQ_bastion_of_baathism = {
			on_add = { log = "[GetDateText]: [Root.GetName]: add idea IRQ_bastion_of_baathism" }
			picture = bastion_of_baathism
			cancel = {
				NOT = {
					nationalist_fascist_are_in_power = yes
				}
			}
			allowed_civil_war = { always = no }

			modifier = {
				nationalist_drift = 0.05
				political_power_factor = 0.1
			}
		}
		IRQ_international_sanctions = {
			on_add = { log = "[GetDateText]: [Root.GetName]: add idea IRQ_international_sanctions" }
			picture = iraq_embargo
			cancel = {
				NOT = {
					nationalist_fascist_are_in_power = yes
				}
			}
			allowed_civil_war = { always = no }

			modifier = {
				foreign_influence_modifier = -0.25
				production_speed_buildings_factor = -0.25
				resource_export_multiplier_modifier = -0.35
				social_cost_multiplier_modifier = 0.15
				democratic_drift = 0.02
				interest_rate_multiplier_modifier = 0.50
			}
		}
		IRQ_international_sanctions2 = {
			on_add = { log = "[GetDateText]: [Root.GetName]: add idea IRQ_international_sanctions" }
			picture = iraq_embargo
			name = IRQ_international_sanctions
			cancel = {
				NOT = {
					nationalist_fascist_are_in_power = yes
				}
			}
			allowed_civil_war = { always = no }

			modifier = {
				foreign_influence_modifier = -0.15
				production_speed_buildings_factor = -0.15
				resource_export_multiplier_modifier = -0.25
				social_cost_multiplier_modifier = 0.10
				democratic_drift = 0.02
				interest_rate_multiplier_modifier = 0.50
			}
		}
		IRQ_international_sanctions3 = {
			on_add = { log = "[GetDateText]: [Root.GetName]: add idea IRQ_international_sanctions" }
			picture = iraq_embargo
			name = IRQ_international_sanctions
			cancel = {
				NOT = {
					nationalist_fascist_are_in_power = yes
				}
			}
			allowed_civil_war = { always = no }

			modifier = {
				foreign_influence_modifier = -0.05
				production_speed_buildings_factor = -0.10
				resource_export_multiplier_modifier = -0.15
				social_cost_multiplier_modifier = 0.05
				democratic_drift = 0.01
				interest_rate_multiplier_modifier = 0.50
			}
		}
		IRQ_international_sanctions4 = {
			on_add = { log = "[GetDateText]: [Root.GetName]: add idea IRQ_international_sanctions" }
			picture = iraq_embargo
			name = IRQ_international_sanctions
			cancel = {
				NOT = {
					nationalist_fascist_are_in_power = yes
				}
			}
			allowed_civil_war = { always = no }

			modifier = {
				production_speed_buildings_factor = -0.05
				resource_export_multiplier_modifier = -0.05
			}
		}
		IRQ_nuclear_experts = {
			on_add = { log = "[GetDateText]: [Root.GetName]: add idea IRQ_nuclear_experts" }
			allowed_civil_war = {
				always = yes
			}
			cancel = {
				NOT = {
					nationalist_fascist_are_in_power = yes
				}
			}
			picture = shared_research
			modifier = {
				production_speed_nuclear_reactor_factor = 0.15
				research_speed_factor = 0.05
			}
		}
		IRQ_resisting_sanctions = {
			on_add = { log = "[GetDateText]: [Root.GetName]: add idea IRQ_resisting_sanctions" }
			picture = iraq_embargo

			cancel = {
				NOT = {
					nationalist_fascist_are_in_power = yes
				}
			}
			allowed_civil_war = { always = no }

			modifier = {
				foreign_influence_modifier = 0.10
				resource_export_multiplier_modifier = 0.15
				nationalist_drift = 0.05
				interest_rate_multiplier_modifier = -0.50
			}
		}
		IRQ_resilient_infrastructure = {
			on_add = { log = "[GetDateText]: [Root.GetName]: add idea IRQ_resilient_infrastructure" }
			picture = embargo

			cancel = {
				NOT = {
					nationalist_fascist_are_in_power = yes
				}
			}
			allowed_civil_war = { always = no }

			modifier = {
				industry_repair_factor = 0.15
				production_speed_buildings_factor = 0.10
			}
		}

		IRQ_resilient_infrastructure2 = {
			on_add = { log = "[GetDateText]: [Root.GetName]: add idea IRQ_resilient_infrastructure2" }
			picture = embargo

			cancel = {
				NOT = {
					nationalist_fascist_are_in_power = yes
				}
			}
			allowed_civil_war = { always = no }
			name = IRQ_resilient_infrastructure
			modifier = {
				industry_repair_factor = 0.20
				production_speed_buildings_factor = 0.15
				industrial_capacity_factory = 0.10
			}
		}

		IRQ_resilient_infrastructure3 = {
			on_add = { log = "[GetDateText]: [Root.GetName]: add idea IRQ_resilient_infrastructure3" }
			picture = embargo

			cancel = {
				NOT = {
					nationalist_fascist_are_in_power = yes
				}
			}
			allowed_civil_war = { always = no }
			name = IRQ_resilient_infrastructure
			modifier = {
				industry_repair_factor = 0.35
				production_speed_buildings_factor = 0.20
				industrial_capacity_factory = 0.15
				production_factory_max_efficiency_factor = 0.10
				production_factory_start_efficiency_factor = 0.10
				production_factory_efficiency_gain_factor = 0.10
			}
		}
		IRQ_protected_oil_resources = {
			on_add = { log = "[GetDateText]: [Root.GetName]: add idea IRQ_protected_oil_resources" }
			picture = protoil
			cancel = {
				NOT = {
					nationalist_fascist_are_in_power = yes
				}
			}
			allowed_civil_war = { always = no }

			modifier = {
				oil_export_multiplier_modifier = 0.10
				resource_sector_workers_modifier = 0.10
			}
		}
		IRQ_increased_exports = {
			on_add = { log = "[GetDateText]: [Root.GetName]: add idea IRQ_increased_exports" }
			picture = oil_profits

			allowed_civil_war = { always = no }

			modifier = {
				oil_export_multiplier_modifier = 0.50
				resource_export_multiplier_modifier = 0.25
				gdp_from_resource_sector_modifier = 0.05
				production_speed_buildings_factor = 0.05
			}
		}
		IRQ_relying_on_our_own_strength_spirit = {
			on_add = { log = "[GetDateText]: [Root.GetName]: add idea IRQ_relying_on_our_own_strength_spirit" }
			picture = spirit_JAP_shield_resist

			allowed_civil_war = { always = no }

			modifier = {
				production_speed_industrial_complex_factor = 0.15
			}
		}
		IRQ_relying_on_our_own_strength_spirit_2 = {
			on_add = { log = "[GetDateText]: [Root.GetName]: add idea IRQ_relying_on_our_own_strength_spirit_2" }
			name = IRQ_relying_on_our_own_strength_spirit
			picture = spirit_JAP_shield_resist

			allowed_civil_war = { always = no }

			modifier = {
				production_speed_industrial_complex_factor = 0.15
				production_speed_offices_factor = 0.20
				office_park_income_tax_modifier = 0.15
			}
		}
		IRQ_relying_on_our_own_strength_spirit_3 = {
			on_add = { log = "[GetDateText]: [Root.GetName]: add idea IRQ_relying_on_our_own_strength_spirit_3" }
			name = IRQ_relying_on_our_own_strength_spirit
			picture = spirit_JAP_shield_resist

			allowed_civil_war = { always = no }

			modifier = {
				production_speed_industrial_complex_factor = 0.20
				production_speed_offices_factor = 0.25
				office_park_income_tax_modifier = 0.20
			}
		}
		IRQ_reverse_engineering_spirit = {
			on_add = { log = "[GetDateText]: [Root.GetName]: add idea IRQ_reverse_engineering_spirit" }
			picture = modernized_army

			allowed_civil_war = { always = no }

			modifier = {
				equipment_capture_factor = 0.10
				equipment_upgrade_xp_cost = -0.13
				production_lack_of_resource_penalty_factor = -0.05
				license_production_speed = 0.15
			}
		}
		IRQ_reverse_engineering_spirit_2 = {
			on_add = { log = "[GetDateText]: [Root.GetName]: add idea IRQ_reverse_engineering_spirit_2" }
			picture = modernized_army
			name = IRQ_reverse_engineering_spirit

			allowed_civil_war = { always = no }

			modifier = {
				equipment_capture_factor = 0.10
				equipment_upgrade_xp_cost = -0.13
				production_lack_of_resource_penalty_factor = -0.10
				license_production_speed = 0.15
				industrial_capacity_factory = 0.07
				production_speed_arms_factory_factor = 0.15
			}
		}
		IRQ_resistance_jewel = {
			on_add = { log = "[GetDateText]: [Root.GetName]: add idea IRQ_resistance_jewel" }
			picture = spr_masters_of_our_own_fate

			allowed_civil_war = { always = no }

			modifier = {
				production_speed_industrial_complex_factor = 0.20
				production_speed_offices_factor = 0.25
				office_park_income_tax_modifier = 0.20
				equipment_capture_factor = 0.10
				equipment_upgrade_xp_cost = -0.13
				production_lack_of_resource_penalty_factor = -0.10
				license_production_speed = 0.15
				industrial_capacity_factory = 0.07
				production_speed_arms_factory_factor = 0.15
				consumer_goods_factor = -0.05
				global_building_slots = 1
				productivity_growth_modifier = 0.025
			}
		}
		IRQ_iraq_economic_aid_to_allies = {
			on_add = { log = "[GetDateText]: [Root.GetName]: add idea IRQ_iraq_economic_aid_to_allies" }
			picture = BRA_plano_real

			allowed_civil_war = { always = no }

			modifier = {
				production_speed_buildings_factor = 0.10
			}
		}
		# Saddam Specific Ideas
		IRQ_secular_society = {
			on_add = { log = "[GetDateText]: [Root.GetName]: add idea IRQ_secular_society" }
			allowed_civil_war = {
				always = yes
			}
			cancel = {
				NOT = {
					nationalist_fascist_are_in_power = yes
				}
			}
			picture = muslim1
			modifier = {
				production_speed_offices_factor = 0.30
				corporate_tax_income_multiplier_modifier = 0.10
				econ_cycle_upg_cost_multiplier_modifier = -0.15
				projects_cost_modifier = -0.25
				production_speed_buildings_factor = 0.20
				offices_worker_requirement_modifier = -0.15
				offices_productivity = 0.20
			}
		}
		IRQ_sharia_society = {
			on_add = { log = "[GetDateText]: [Root.GetName]: add idea IRQ_sharia_society" }
			allowed_civil_war = {
				always = yes
			}
			cancel = {
				NOT = {
					nationalist_fascist_are_in_power = yes
				}
			}
			picture = islamic_world
			modifier = {
				conscription = 0.10
				drift_defence_factor = 0.30
				army_attack_factor = 0.10
				army_personnel_cost_multiplier_modifier = -0.25
				training_time_factor = -0.25
				terrain_penalty_reduction = 0.15
				war_support_factor = 0.25
			}
		}
		IRQ_economic_domination = {
			on_add = { log = "[GetDateText]: [Root.GetName]: add idea IRQ_economic_domination" }
			allowed_civil_war = {
				always = yes
			}
			cancel = {
				NOT = {
					nationalist_fascist_are_in_power = yes
				}
			}
			picture = BRA_favelas
			modifier = {
				interest_rate_multiplier_modifier = -1.00
				local_resources_factor = 0.15
				consumer_goods_factor = -0.05
				oil_export_multiplier_modifier = 0.15
			}
		}
		IRQ_conscriptions_in_schools = {
			on_add = { log = "[GetDateText]: [Root.GetName]: add idea IRQ_conscriptions_in_schools" }
			picture = army_child_soldier
			allowed = {
				has_country_flag = IRQ_prepare_for_usa_war
			}
			cancel = {
				NOT = {
					has_country_flag = IRQ_prepare_for_usa_war
				}
			}
			allowed_civil_war = { always = no }

			modifier = {
				recruitable_population_factor = 0.1
				research_speed_factor = -0.10
			}
		}

		IRQ_baathist_intervention = {
			on_add = { log = "[GetDateText]: [Root.GetName]: add IRQ_baathist_intervention" }
			picture = war
			cancel = {
				OR = {
					SBP = {
						has_war = no
					}
					JBP = {
						has_war = no
					}
				}
			}
			modifier = {
				send_volunteer_divisions_required = -0.15
				send_volunteer_size = 5
				send_volunteers_tension = -1
			}
		}

		IRQ_JOR_baathist = {
			on_add = { log = "[GetDateText]: [Root.GetName]: add IRQ_JOR_baathist" }
			picture = roit_police_idea
			cancel = {
				has_war = no
			}
			modifier = {
				surrender_limit = 1
			}
			targeted_modifier = {
				tag = JOR
				attack_bonus_against = 0.25
				defense_bonus_against = 0.30
			}
		}

		IRQ_EGY_baathist = {
			on_add = { log = "[GetDateText]: [Root.GetName]: add IRQ_EGY_baathist" }
			picture = roit_police_idea
			cancel = {
				has_war = no
			}
			modifier = {
				surrender_limit = 1
			}
			targeted_modifier = {
				tag = EGY
				attack_bonus_against = 0.25
				defense_bonus_against = 0.30
			}
		}

		IRQ_mosque_income_idea = {
			on_add = { log = "[GetDateText]: [Root.GetName]: add IRQ_mosque_income_idea" }
			picture = ISR_allqsa
			cancel = {
				NOT = {
					nationalist_fascist_are_in_power = yes
				}
			}
			modifier = {
				custom_modifier_tooltip = additional_income_IRQ_mosque_income_TT
			}
		}

		IRQ_SYR_baathist = {
			on_add = { log = "[GetDateText]: [Root.GetName]: add IRQ_SYR_baathist" }
			picture = israel_new_intifada
			cancel = {
				has_war = no
			}
			modifier = {
				surrender_limit = 1
			}
			targeted_modifier = {
				tag = SYR
				attack_bonus_against = 0.25
				defense_bonus_against = 0.30
			}
		}

		IRQ_assertive_domination = {
			on_add = { log = "[GetDateText]: [Root.GetName]: add IRQ_assertive_domination" }
			picture = SWE_neither_death_nor_dishonor
			cancel = {
				NOT = {
					nationalist_fascist_are_in_power = yes
				}
			}
			modifier = {
				surrender_limit = 0.50
				subjects_autonomy_gain = -0.5
				offensive_war_stability_factor = 0.15
			}
		}

		IRQ_cooperative_domination = {
			on_add = { log = "[GetDateText]: [Root.GetName]: add IRQ_cooperative_domination" }
			picture = SWE_all_cards_on_deck
			cancel = {
				NOT = {
					nationalist_fascist_are_in_power = yes
				}
			}
			modifier = {
				foreign_influence_modifier = 0.15
				influence_coup_modifier = 0.25
				foreign_influence_defense_modifier = 0.35
				send_volunteer_size = 5
			}
		}

		IRQ_fadayyene_saddam = {
			on_add = { log = "[GetDateText]: [Root.GetName]: add idea IRQ_fadayyene_saddam" }
			picture = CUB_modern
			allowed = {
				has_country_flag = IRQ_prepare_for_usa_war
			}
			cancel = {
				OR = {
					NOT = {
						has_country_flag = IRQ_prepare_for_usa_war
					}
					nationalist_fascist_are_not_in_power = yes
				}
			}
			allowed_civil_war = { always = no }

			modifier = {
				army_core_defence_factor = 0.15
			}
		}

		IRQ_uday_hussein_idea = {
			on_add = { log = "[GetDateText]: [Root.GetName]: add idea IRQ_uday_hussein_idea" }
			picture = uday_face
			allowed = {
				has_country_flag = IRQ_prepare_for_usa_war
			}
			cancel = {
				OR = {
					NOT = {
						has_country_flag = IRQ_prepare_for_usa_war
					}
					nationalist_fascist_are_not_in_power = yes
				}
			}
			allowed_civil_war = { always = no }

			modifier = {
				land_reinforce_rate = 0.02
				foreign_influence_defense_modifier = 0.10
				justify_war_goal_time = -0.10
				corruption_cost_factor = 0.35
				propaganda_campaign_cost_modifier = -0.35
				tax_gain_multiplier_modifier = -0.10
			}
		}

		IRQ_triumph_over_america = {
			on_add = { log = "[GetDateText]: [Root.GetName]: add idea IRQ_triumph_over_america" }
			picture = USA_gun_funding
			cancel = {
				NOT = {
					nationalist_fascist_are_in_power = yes
				}
			}
			modifier = {
				decryption_factor = 0.15
				army_attack_factor = 0.10
				max_planning_factor = 0.15
			}
		}

		IRQ_oil_for_food = {
			on_add = { log = "[GetDateText]: [Root.GetName]: add idea IRQ_oil_for_food" }
			picture = looming_famine
			cancel = {
				NOT = {
					nationalist_fascist_are_in_power = yes
				}
			}
			modifier = {
				stability_factor = 0.05
				monthly_population = 0.05
				expected_healthcare_modifier = -1.00
			}
		}

		IRQ_oil_for_food_food_focus = {
			on_add = { log = "[GetDateText]: [Root.GetName]: add idea IRQ_oil_for_food_food_focus" }
			picture = SWE_hungershield
			cancel = {
				NOT = {
					nationalist_fascist_are_in_power = yes
				}
			}
			modifier = {
				stability_factor = 0.05
				monthly_population = 0.12
				expected_healthcare_modifier = -1.00
			}
		}

		IRQ_oil_for_food_medical_focus = {
			on_add = { log = "[GetDateText]: [Root.GetName]: add idea IRQ_oil_for_food_medical_focus" }
			picture = SWE_hungershield
			cancel = {
				NOT = {
					nationalist_fascist_are_in_power = yes
				}
			}
			modifier = {
				stability_factor = 0.05
				monthly_population = 0.05
				expected_healthcare_modifier = -1.00
				army_morale_factor = 0.12
			}
		}

		IRQ_cult_of_saddam = {
			on_add = { log = "[GetDateText]: [Root.GetName]: add idea IRQ_cult_of_saddam" }
			picture = nationalist_outlook
			cancel = {
				NOT = {
					nationalist_fascist_are_in_power = yes
				}
			}
			modifier = {
				nationalist_drift = 0.03
				war_support_factor = 0.05
				drift_defence_factor = 0.05
				conscription = 0.02
			}
		}

		IRQ_cult_of_saddam2 = {
			on_add = { log = "[GetDateText]: [Root.GetName]: add idea IRQ_cult_of_saddam2" }
			picture = nationalist_outlook
			name = IRQ_cult_of_saddam
			cancel = {
				NOT = {
					nationalist_fascist_are_in_power = yes
				}
			}
			modifier = {
				nationalist_drift = 0.03
				war_support_factor = 0.05
				drift_defence_factor = 0.05
				conscription = 0.02
				research_speed_factor = 0.03
				education_cost_multiplier_modifier = -0.10
			}
		}

		IRQ_cult_of_saddam3 = {
			on_add = { log = "[GetDateText]: [Root.GetName]: add idea IRQ_cult_of_saddam3" }
			picture = nationalist_outlook
			name = IRQ_cult_of_saddam
			cancel = {
				NOT = {
					nationalist_fascist_are_in_power = yes
				}
			}
			modifier = {
				nationalist_drift = 0.05
				war_support_factor = 0.10
				drift_defence_factor = 0.05
				conscription = 0.02
				research_speed_factor = 0.03
				education_cost_multiplier_modifier = -0.10
				police_cost_multiplier_modifier = 0.02
				political_power_gain = 0.50
			}
		}

		IRQ_PIJ_idea = {
			on_add = { log = "[GetDateText]: [Root.GetName]: add idea IRQ_PIJ_idea" }
			picture = palestine_liberation_groups
			cancel = {
				NOT = {
					nationalist_fascist_are_in_power = yes
				}
			}
			targeted_modifier = {
				tag = ISR
				attack_bonus_against = 0.10
				defense_bonus_against = 0.15
			}
		}
		#
		IRQ_aftermath_of_war = {
			on_add = { log = "[GetDateText]: [Root.GetName]: add idea IRQ_aftermath_of_war" }
			picture = ser_nato_bombing_idea

			allowed_civil_war = { always = no }

			modifier = {
				production_speed_buildings_factor = -0.25
				consumer_goods_factor = 0.10
				industrial_capacity_factory = -0.20
				research_speed_factor = -0.20
			}
		}
		IRQ_aftermath_of_war_2 = {
			on_add = { log = "[GetDateText]: [Root.GetName]: add idea IRQ_aftermath_of_war_2" }
			name = IRQ_aftermath_of_war
			picture = ser_nato_bombing_idea

			allowed_civil_war = { always = no }

			modifier = {
				production_speed_buildings_factor = -0.20
				consumer_goods_factor = 0.10
				industrial_capacity_factory = -0.15
				research_speed_factor = -0.15
			}
		}
		IRQ_aftermath_of_war_3 = {
			on_add = { log = "[GetDateText]: [Root.GetName]: add idea IRQ_aftermath_of_war_3" }
			name = IRQ_aftermath_of_war
			picture = ser_nato_bombing_idea

			allowed_civil_war = { always = no }

			modifier = {
				production_speed_buildings_factor = -0.17
				consumer_goods_factor = 0.08
				industrial_capacity_factory = -0.12
				research_speed_factor = -0.12
			}
		}
		IRQ_aftermath_of_war_4 = {
			on_add = { log = "[GetDateText]: [Root.GetName]: add idea IRQ_aftermath_of_war_4" }
			name = IRQ_aftermath_of_war
			picture = ser_nato_bombing_idea

			allowed_civil_war = { always = no }

			modifier = {
				production_speed_buildings_factor = -0.17
				consumer_goods_factor = 0.08
				industrial_capacity_factory = -0.07
				research_speed_factor = -0.12
			}
		}
		IRQ_aftermath_of_war_5 = {
			on_add = { log = "[GetDateText]: [Root.GetName]: add idea IRQ_aftermath_of_war_5" }
			name = IRQ_aftermath_of_war
			picture = ser_nato_bombing_idea

			allowed_civil_war = { always = no }

			modifier = {
				production_speed_buildings_factor = -0.17
				consumer_goods_factor = 0.05
				industrial_capacity_factory = -0.02
				research_speed_factor = -0.12
			}
		}
		IRQ_boosted_military_production = {
			on_add = { log = "[GetDateText]: [Root.GetName]: add idea IRQ_boosted_military_production" }
			picture = industrial_focus

			allowed_civil_war = { always = no }

			modifier = {
				industrial_capacity_factory = 0.10
			}
		}
		IRQ_boosted_industrial_production = {
			on_add = { log = "[GetDateText]: [Root.GetName]: add idea IRQ_boosted_industrial_production" }
			picture = industrial_focus

			allowed_civil_war = { always = no }

			modifier = {
				production_speed_buildings_factor = 0.05
			}
		}
		IRQ_boosted_industrial_production_2 = {
			on_add = { log = "[GetDateText]: [Root.GetName]: add idea IRQ_boosted_industrial_production_2" }
			name = IRQ_boosted_industrial_production
			picture = industrial_focus

			allowed_civil_war = { always = no }

			modifier = {
				production_speed_buildings_factor = 0.10
				research_speed_factor = 0.03
			}
		}
		IRQ_boosted_industrial_production_3 = {
			on_add = { log = "[GetDateText]: [Root.GetName]: add idea IRQ_boosted_industrial_production_3" }
			name = IRQ_boosted_industrial_production
			picture = industrial_focus

			allowed_civil_war = { always = no }

			modifier = {
				production_speed_buildings_factor = 0.20
				research_speed_factor = 0.03
			}
		}
		IRQ_boosted_industrial_production_4 = {
			on_add = { log = "[GetDateText]: [Root.GetName]: add idea IRQ_boosted_industrial_production_4" }
			name = IRQ_boosted_industrial_production
			picture = industrial_focus

			allowed_civil_war = { always = no }

			modifier = {
				production_speed_buildings_factor = 0.20
				research_speed_factor = 0.03
				consumer_goods_factor = -0.05
			}
		}

		IRQ_revolutionary_command_council1 = {
			on_add = { log = "[GetDateText]: [Root.GetName]: add idea IRQ_revolutionary_command_council1" }
			name = IRQ_revolutionary_command_council1
			picture = spr_international_brigades
			cancel = {
				nationalist_fascist_are_not_in_power = yes
			}
			allowed_civil_war = { always = no }

			modifier = {
				propaganda_campaign_cost_modifier = -0.35
				bureaucracy_cost_multiplier_modifier = -0.10
				tax_gain_multiplier_modifier = 0.05
			}
		}

		IRQ_farming_incentives1 = {
			on_add = { log = "[GetDateText]: [Root.GetName]: add idea IRQ_farming_incentives1" }
			name = IRQ_farming_incentives1
			picture = blr_agro_industry_idea

			allowed_civil_war = { always = no }

			modifier = {
				agricolture_productivity_modifier = 0.15
				health_cost_multiplier_modifier = -0.05
				agriculture_tax_modifier = 0.05
			}
		}

		IRQ_farming_incentives2 = {
			on_add = { log = "[GetDateText]: [Root.GetName]: add idea IRQ_farming_incentives1" }
			name = IRQ_farming_incentives1
			picture = blr_agro_industry_idea

			allowed_civil_war = { always = no }

			modifier = {
				agricolture_productivity_modifier = 0.25
				health_cost_multiplier_modifier = -0.10
				agriculture_tax_modifier = 0.10
				consumer_goods_factor = -0.05
			}
		}

		IRQ_farming_incentives3 = {
			on_add = { log = "[GetDateText]: [Root.GetName]: add idea IRQ_farming_incentives1" }
			name = IRQ_farming_incentives1
			picture = blr_agro_industry_idea

			allowed_civil_war = { always = no }

			modifier = {
				agricolture_productivity_modifier = 0.35
				health_cost_multiplier_modifier = -0.15
				consumer_goods_factor = -0.10
				expected_welfare_modifier = -1.00
				agriculture_tax_modifier = 0.15
			}
		}

		IRQ_trade_relations_harmed = {
			on_add = { log = "[GetDateText]: [Root.GetName]: add idea IRQ_trade_relations_harmed" }
			picture = ETH_customs_barrier_ITA

			allowed_civil_war = { always = no }

			modifier = {
				trade_opinion_factor = -1.00
				min_export = -1.00
			}
		}
		IRQ_trade_relations_harmed_2 = {
			on_add = { log = "[GetDateText]: [Root.GetName]: add idea IRQ_trade_relations_harmed_2" }
			name = IRQ_trade_relations_harmed
			picture = ETH_customs_barrier_ITA

			allowed_civil_war = { always = no }

			modifier = {
				trade_opinion_factor = -0.10
				min_export = -0.20
			}
			targeted_modifier = {
				tag = SOV
				extra_trade_to_target_factor = 0.15
			}
			targeted_modifier = {
				tag = CHI
				extra_trade_to_target_factor = 0.15
			}
		}
		IRQ_trade_relations_harmed_3 = {
			on_add = { log = "[GetDateText]: [Root.GetName]: add idea IRQ_trade_relations_harmed_3" }
			name = IRQ_trade_relations_harmed
			picture = ETH_customs_barrier_ITA

			allowed_civil_war = { always = no }

			modifier = {
				trade_opinion_factor = -0.10
				min_export = -0.10
				research_speed_factor = 0.07
			}
			targeted_modifier = {
				tag = SOV
				extra_trade_to_target_factor = 0.15
			}
			targeted_modifier = {
				tag = CHI
				extra_trade_to_target_factor = 0.15
			}
		}
		IRQ_just_like_babylonia_idea = {
			on_add = { log = "[GetDateText]: [Root.GetName]: add idea IRQ_just_like_babylonia_idea" }
			picture = ser_autarky_idea

			allowed_civil_war = { always = no }

			modifier = {
				production_speed_offices_factor = 0.10
				consumer_goods_factor = -0.05
			}
		}
		IRQ_air_support_granted = {
			on_add = { log = "[GetDateText]: [Root.GetName]: add idea IRQ_air_support_granted" }
			picture = air_payment

			modifier = {
				custom_modifier_tooltip = IRQ_200_more_TT
			}
		}

		IRQ_threat_of_al_qaeda = {
			on_add = { log = "[GetDateText]: [Root.GetName]: add idea IRQ_threat_of_al_qaeda" }
			picture = al_qaeda_network
			cancel = {
				NOT = {
					has_country_flag = IRQ_insurgency_active
				}
			}
			modifier = {
				fascism_drift = 0.02
				stability_factor = -0.05
				unit_upkeep_attrition_factor = 0.20
				foreign_influence_defense_modifier = -0.35
				supply_consumption_factor = 0.25
			}
		}
		# Military Ideas
		# Ba'athist ideas
		IRQ_arabic_gulf_academy = {
			on_add = { log = "[GetDateText]: [Root.GetName]: add idea IRQ_arabic_gulf_academy" }
			picture = army_good_officer
			modifier = {
				navy_max_range_factor = 0.10
				navy_leader_cost_factor = -0.15
				experience_gain_navy_unit_factor = 0.10
				naval_invasion_penalty = -0.15
			}
			equipment_bonus = {
				destroyer = {
					anti_air_attack = 0.2
					instant = yes
				}
				frigate = {
					lg_attack = 0.1
					lg_armor_piercing = 0.1
					instant = yes
				}
				corvette = {
					sub_detection = 0.1
					sub_attack = 0.1
					instant = yes
				}
			}
		}

		IRQ_new_engineers_naval_idea = {
			on_add = { log = "[GetDateText]: [Root.GetName]: add idea IRQ_new_engineers_naval_idea" }
			picture = SWE_coastal_support
			modifier = {
				industrial_capacity_dockyard = 0.05
				refit_speed = 0.10
				naval_accidents_chance = -0.10
				dockyard_productivity = 0.05
			}
		}

		IRQ_assymetrical_focus = {
			on_add = { log = "[GetDateText]: [Root.GetName]: add idea IRQ_assymetrical_focus" }
			picture = hol_liberation
			modifier = {
				army_org_regain = 0.03
				terrain_penalty_reduction = 0.10
				special_forces_attack_factor = 0.05
				special_forces_defence_factor = 0.10
			}
		}

		IRQ_conventional_focus = {
			on_add = { log = "[GetDateText]: [Root.GetName]: add idea IRQ_conventional_focus" }
			picture = gas_mask_cope
			modifier = {
				army_org_factor = 0.05
				supply_node_range = 0.15
				army_morale_factor = 0.05
				army_leader_start_planning_level = 1
			}
		}

		IRQ_tikrit_air_academy = {
			on_add = { log = "[GetDateText]: [Root.GetName]: add idea IRQ_tikrit_air_academy" }
			picture = air_research
			modifier = {
				air_intercept_efficiency = 0.05
				air_interception_detect_factor = 0.10
				air_mission_xp_gain_factor = 0.15
				air_training_xp_gain_factor = 0.10
				ground_attack_factor = 0.10
				air_superiority_efficiency = 0.05
			}
		}

		# Constitutionalist Spirits

		IRQ_parliamentary_idea = {
			on_add = { log = "[GetDateText]: [Root.GetName]: add idea IRQ_parliamentary_idea" }
			picture = Parliamentary_republic_idea
			modifier = {
				bureaucracy_cost_multiplier_modifier = -0.15
				political_power_factor = -0.10
			}
		}

		IRQ_presidential_idea = {
			on_add = { log = "[GetDateText]: [Root.GetName]: add idea IRQ_presidential_idea" }
			picture = semi-presidential_republic_idea
			modifier = {
				bureaucracy_cost_multiplier_modifier = 0.10
				political_power_factor = 0.10
			}
		}

		# Political Spirits

		IRQ_combined_security_training = {
			on_add = { log = "[GetDateText]: [Root.GetName]: add idea IRQ_combined_security_training" }
			picture = SWI_spirit_of_helvetia_aggressive_peace
			modifier = {
				crime_fighting_cost_factor = 0.10
				police_cost_multiplier_modifier = -0.10
			}
		}

		IRQ_financial_relief = {
			on_add = { log = "[GetDateText]: [Root.GetName]: add idea IRQ_financial_relief" }
			allowed_civil_war = {
				always = yes
			}
			picture = NOR_printing_money
			modifier = {
				interest_rate_multiplier_modifier = -1.00
				projects_cost_modifier = -0.15
				consumer_goods_factor = -0.02
			}
		}

		IRQ_nationwide_network = {
			on_add = { log = "[GetDateText]: [Root.GetName]: add idea IRQ_nationwide_network" }
			allowed_civil_war = {
				always = yes
			}
			picture = political_support
			modifier = {
				democratic_drift = 0.02
				production_speed_internet_station_factor = 0.15
			}
		}

		IRQ_educational_restructuring = {
			on_add = { log = "[GetDateText]: [Root.GetName]: add idea IRQ_educational_restructuring" }
			allowed_civil_war = {
				always = yes
			}
			picture = mercosur_education
			modifier = {
				research_speed_factor = 0.10
				education_cost_multiplier_modifier = -0.05
			}
			research_bonus = {
				CAT_ai = 0.05
				CAT_nfibers = 0.05
			}
		}

		IRQ_educational_restructuring2 = {
			on_add = { log = "[GetDateText]: [Root.GetName]: add idea IRQ_educational_restructuring2" }
			allowed_civil_war = {
				always = yes
			}
			picture = mercosur_education
			name = IRQ_educational_restructuring
			modifier = {
				research_speed_factor = 0.10
				education_cost_multiplier_modifier = -0.05
			}
			research_bonus = {
				CAT_ai = 0.10
				CAT_nfibers = 0.10
				CAT_3d = 0.05
				CAT_internet_tech = 0.05
			}
		}

		IRQ_educational_restructuring3 = {
			on_add = { log = "[GetDateText]: [Root.GetName]: add idea IRQ_educational_restructuring3" }
			allowed_civil_war = {
				always = yes
			}
			picture = mercosur_education
			name = IRQ_educational_restructuring
			modifier = {
				research_speed_factor = 0.10
				education_cost_multiplier_modifier = -0.10
				expected_education_modifier = -1.00
			}
			research_bonus = {
				CAT_ai = 0.10
				CAT_nfibers = 0.10
				CAT_3d = 0.10
				CAT_internet_tech = 0.10
				CAT_computing_tech = 0.10
			}
		}

		IRQ_restructured_police = {
			on_add = { log = "[GetDateText]: [Root.GetName]: add idea IRQ_restructured_police" }
			allowed_civil_war = {
				always = yes
			}
			picture = secret_police
			modifier = {
				root_out_resistance_effectiveness_factor = 0.20
				#resistance_growth = -0.15
				police_cost_multiplier_modifier = -0.15
				crime_fighting_cost_factor = 0.10
			}
		}

		IRQ_restructured_police2 = {
			on_add = { log = "[GetDateText]: [Root.GetName]: add idea IRQ_restructured_police2" }
			allowed_civil_war = {
				always = yes
			}
			picture = secret_police
			name = IRQ_restructured_police
			modifier = {
				root_out_resistance_effectiveness_factor = 0.25
				resistance_growth = -0.15
				police_cost_multiplier_modifier = -0.15
				crime_fighting_cost_factor = 0.10
				experience_gain_army_unit_factor = 0.10
			}
		}

		# Iraqi National Congress

		IRQ_all_walks_of_life = {
			on_add = { log = "[GetDateText]: [Root.GetName]: add idea IRQ_all_walks_of_life" }
			allowed_civil_war = {
				always = yes
			}
			picture = mnt_democratisation_idea
			modifier = {
				democratic_drift = 0.03
				corruption_cost_factor = -0.10
				political_power_factor = 0.05
			}
		}

		IRQ_all_walks_of_life2 = {
			on_add = { log = "[GetDateText]: [Root.GetName]: add idea IRQ_all_walks_of_life2" }
			allowed_civil_war = {
				always = yes
			}
			name = IRQ_all_walks_of_life
			picture = mnt_democratisation_idea
			modifier = {
				democratic_drift = 0.05
				corruption_cost_factor = -0.15
				political_power_factor = 0.10
				receiving_investment_cost_modifier = -0.10
				return_on_investment_modifier = 0.01
			}
		}

		IRQ_raad_bin_zeid = {
			on_add = { log = "[GetDateText]: [Root.GetName]: add idea IRQ_raad_bin_zeid" }
			allowed_civil_war = {
				always = yes
			}
			picture = monarchy2
			modifier = {
				stability_factor = 0.05
				population_tax_income_multiplier_modifier = -0.05
				nationalist_drift = 0.02
			}
		}

		IRQ_free_forces_irq = {
			on_add = { log = "[GetDateText]: [Root.GetName]: add idea IRQ_free_forces_irq" }
			allowed_civil_war = {
				always = yes
			}
			picture = SWE_varnplikt
			modifier = {
				planning_speed = 0.10
				dig_in_speed_factor = 0.05
				recon_factor = 0.05
				breakthrough_factor = 0.03
			}
		}

		IRQ_free_forces_irq2 = {
			on_add = { log = "[GetDateText]: [Root.GetName]: add idea IRQ_free_forces_irq2" }
			allowed_civil_war = {
				always = yes
			}
			name = IRQ_free_forces_irq
			picture = SWE_varnplikt
			modifier = {
				planning_speed = 0.10
				dig_in_speed_factor = 0.05
				recon_factor = 0.10
				breakthrough_factor = 0.05
				org_loss_at_low_org_factor = -0.10
				org_loss_when_moving = -0.5
				opinion_gain_monthly_factor = 0.10
			}
		}

		IRQ_sadrist_forces = {
			on_add = { log = "[GetDateText]: [Root.GetName]: add idea IRQ_sadrist_forces" }
			allowed_civil_war = {
				always = yes
			}
			picture = sef3ewd
			modifier = {
				justify_war_goal_time = -0.20
				political_power_gain = 0.50
			}
		}

		IRQ_american_springboard = {
			on_add = { log = "[GetDateText]: [Root.GetName]: add idea IRQ_american_springboard" }
			allowed_civil_war = {
				always = yes
			}
			picture = usa_afgan_intervention
			modifier = {
				foreign_subversive_activites = -0.15
				resistance_damage_to_garrison = -0.25
				decryption = 1
				encryption = 1
				production_speed_radar_station_factor = 0.15
				subversive_activites_upkeep = -0.15
			}
		}

		# Al-Dawa
		IRQ_party_coffers = {
			on_add = { log = "[GetDateText]: [Root.GetName]: add IRQ_party_coffers" }
			picture = low_popular_support
			modifier = {
				custom_modifier_tooltip = additional_income_IRQ_party_coffers_1
			}
		}

		IRQ_party_coffers3 = {
			on_add = { log = "[GetDateText]: [Root.GetName]: add IRQ_party_coffers3" }
			picture = low_popular_support3
			name = IRQ_party_coffers
			modifier = {
				civilian_factories_productivity = 0.10
				offices_productivity = 0.10
				civilian_industry_tax_modifier = 0.10
				custom_modifier_tooltip = additional_income_IRQ_party_coffers_1
			}
		}

		IRQ_party_coffers2 = {
			on_add = { log = "[GetDateText]: [Root.GetName]: add IRQ_party_coffers2" }
			name = IRQ_party_coffers
			picture = war
			modifier = {
				civilian_factories_productivity = 0.10
				offices_productivity = 0.10
				civilian_industry_tax_modifier = 0.10
				custom_modifier_tooltip = additional_income_IRQ_party_coffers_2
			}
		}

		IRQ_empowering_shias = {
			on_add = { log = "[GetDateText]: [Root.GetName]: add idea IRQ_empowering_shias" }
			allowed_civil_war = {
				always = yes
			}
			picture = shia_idea
			modifier = {
				communism_drift = 0.02
				party_popularity_stability_factor = 0.15
				propaganda_campaign_cost_modifier = -0.10
			}
		}

		IRQ_militia_reliance = {
			on_add = { log = "[GetDateText]: [Root.GetName]: add idea IRQ_militia_reliance" }

			picture = militant_group_soldier

			allowed_civil_war = {
				always = no
			}

			modifier = {
				modifier_army_sub_unit_Militia_Bat_attack_factor = 0.10
				modifier_army_sub_unit_Militia_Bat_defence_factor = 0.10
				modifier_army_sub_unit_Mot_Militia_Bat_attack_factor = 0.10
				modifier_army_sub_unit_Mot_Militia_Bat_defence_factor = 0.10
				recruitable_population = 0.01
			}
		}

		IRQ_militia_reliance2 = {
			on_add = { log = "[GetDateText]: [Root.GetName]: add idea IRQ_militia_reliance2" }

			picture = militant_group_soldier
			name = IRQ_militia_reliance
			allowed_civil_war = {
				always = no
			}

			modifier = {
				modifier_army_sub_unit_Militia_Bat_attack_factor = 0.15
				modifier_army_sub_unit_Militia_Bat_defence_factor = 0.15
				modifier_army_sub_unit_Mot_Militia_Bat_attack_factor = 0.15
				modifier_army_sub_unit_Mot_Militia_Bat_defence_factor = 0.15
				recruitable_population = 0.02
				military_factories_productivity = 0.10
				military_industry_tax_modifier = 0.05
			}
		}

		IRQ_oil_auctions = {
			on_add = { log = "[GetDateText]: [Root.GetName]: add idea IRQ_oil_auctions" }

			picture = oil_profits

			allowed_civil_war = {
				always = no
			}

			modifier = {
				gdp_from_resource_sector_modifier = 0.15
				country_productivity_growth_modifier = 0.05
			}
		}

		# Islamic Republic of Iraq Ideas
		IRQ_palestinian_vengeance = {
			on_add = { log = "[GetDateText]: [Root.GetName]: add idea IRQ_palestinian_vengeance" }
			picture = palestine_liberation_groups

			allowed_civil_war = { always = no }
			targeted_modifier = {
				tag = ISR
				attack_bonus_against = 0.15
			}
		}

		IRQ_pmf_deployed = {
			on_add = { log = "[GetDateText]: [Root.GetName]: add idea IRQ_pmf_deployed" }
			picture = SWE_ga_pa_tactics

			allowed_civil_war = { always = no }
			modifier = {
				unit_upkeep_attrition_factor = 0.15
				army_personnel_cost_multiplier_modifier = 0.25
				personnel_cost_multiplier_modifier = 0.15
			}
		}

		IRQ_pmf_mobilizing = {
			on_add = { log = "[GetDateText]: [Root.GetName]: add idea IRQ_pmf_mobilizing" }
			picture = forced_conscription

			allowed_civil_war = { always = no }
			cancel = {
				NOT = {
					has_country_flag = IRQ_begin_mobilization
				}
			}
			modifier = {
				army_personnel_cost_multiplier_modifier = 0.35
			}
		}

		IRQ_iranian_military_companies = {
			on_add = { log = "[GetDateText]: [Root.GetName]: add idea IRQ_iranian_military_companies" }
			picture = IROST_idea

			allowed_civil_war = { always = no }
			equipment_bonus = {
				util_vehicle_equipment = {
					instant = yes
					build_cost_ic = -0.10
				}
				IFV_Equipment = {
					instant = yes
					build_cost_ic = -0.10
				}
				APC_Equipment = {
					instant = yes
					build_cost_ic = -0.10
				}
				MBT_Equipment = {
					instant = yes
					build_cost_ic = -0.10
				}
				Inf_equipment = {
					instant = yes
					build_cost_ic = -0.10
				}
				cnc_equipment = {
					instant = yes
					build_cost_ic = -0.10
				}
			}
		}

		IRQ_army_of_the_revolution = {
			on_add = { log = "[GetDateText]: [Root.GetName]: add idea IRQ_army_of_the_revolution" }
			picture = army_cons

			allowed_civil_war = { always = no }
			modifier = {
				weekly_manpower = 500
				experience_gain_army_factor = 0.05
				army_core_defence_factor = 0.1
			}
		}

		IRQ_constitutional_manipulation = {
			on_add = { log = "[GetDateText]: [Root.GetName]: add idea IRQ_constitutional_manipulation" }
			picture = constitutional_changes
			modifier = {
				bureaucracy_cost_multiplier_modifier = -0.10
				political_power_factor = 0.10
				expected_adm_modifier = -1
			}
		}

		IRQ_islam_over_state = {
			on_add = { log = "[GetDateText]: [Root.GetName]: add idea IRQ_islam_over_state" }
			picture = islamic_world
			modifier = {
				foreign_influence_modifier = 0.05
				drift_defence_factor = 0.1
				conscription_factor = 0.03
			}
		}

		IRQ_islam_over_state2 = {
			on_add = { log = "[GetDateText]: [Root.GetName]: add idea IRQ_islam_over_state2" }
			picture = islamic_world
			name = IRQ_islam_over_state
			modifier = {
				foreign_influence_modifier = 0.1
				drift_defence_factor = 0.1
				conscription_factor = 0.05
				expected_police_modifier = -1.00
			}
		}

		IRQ_war_against_propaganda = {
			on_add = { log = "[GetDateText]: [Root.GetName]: add idea IRQ_war_against_propaganda" }
			picture = desegregation1
			modifier = {
				monthly_population = 0.05
				democratic_drift = -0.02
				neutrality_drift = -0.02
				western_outlook_campaign_cost_modifier = 0.50
				emerging_outlook_campaign_cost_modifier = -0.50
			}
		}

		IRQ_gate_to_the_world = {
			on_add = { log = "[GetDateText]: [Root.GetName]: add idea IRQ_gate_to_the_world" }
			picture = central_management
			modifier = {
				economic_cycles_cost_factor = -0.10
				interest_rate_multiplier_modifier = -1
				production_factory_start_efficiency_factor = 0.1
				production_factory_efficiency_gain_factor = 0.1
				production_speed_buildings_factor = 0.1
				consumer_goods_factor = -0.03
			}
		}

		IRQ_quds_advice = {
			on_add = { log = "[GetDateText]: [Root.GetName]: add idea IRQ_quds_advice" }
			picture = iranian_flag

			allowed_civil_war = { always = no }
			targeted_modifier = {
				tag = USA
				attack_bonus_against = 0.15
				defense_bonus_against = 0.20
			}
		}

		IRQ_irgc_expertise = {
			on_add = { log = "[GetDateText]: [Root.GetName]: add idea IRQ_irgc_expertise" }
			picture = iranian_aid
			equipment_bonus = {
				Inf_equipment = {
					reliability = 0.10
					soft_attack = 0.10
				}
				AA_Equipment = {
					reliability = 0.10
					air_attack = 0.10
				}
				L_AT_Equipment = {
					reliability = 0.10
					hard_attack = 0.10
				}
				cnc_equipment = {
					reliability = 0.10
					max_organisation = 0.10
				}
			}
		}

		# Gommunism
		IRQ_equality_society = {
			on_add = { log = "[GetDateText]: [Root.GetName]: add idea IRQ_equality_society" }
			picture = sov_comm_angry
			cancel = {
				NOT = {
					neutrality_neutral_communism_in_power_or_coalition = yes
				}
			}
			modifier = {
				corruption_cost_factor = -0.1
				productivity_growth_modifier = 0.75
			}
		}

		IRQ_equality_society2 = {
			on_add = { log = "[GetDateText]: [Root.GetName]: add idea IRQ_equality_society2" }
			picture = sov_comm_angry
			name = IRQ_equality_society
			cancel = {
				NOT = {
					neutrality_neutral_communism_in_power_or_coalition = yes
				}
			}
			modifier = {
				corruption_cost_factor = -0.1
				productivity_growth_modifier = 1.00
				tax_rate_change_multiplier_modifier = -0.10
				investment_cost_modifier = -0.10
				production_speed_buildings_factor = 0.10
			}
		}

		IRQ_al_ansar_resurgence = {
			on_add = { log = "[GetDateText]: [Root.GetName]: add idea IRQ_al_ansar_resurgence" }
			picture = communism5
			cancel = {
				NOT = {
					neutrality_neutral_communism_in_power_or_coalition = yes
				}
			}
			modifier = {
				nationalist_drift = -0.03
				communism_drift = -0.03
				training_time_army_factor = -0.10
				mobilization_speed = 0.05
				out_of_supply_factor = -0.1
			}
		}

		IRQ_expulsion_of_iranian_idea = {
			on_add = { log = "[GetDateText]: [Root.GetName]: add idea IRQ_expulsion_of_iranian_idea" }
			picture = helmet_iran_red
			cancel = {
				NOT = {
					neutrality_neutral_communism_in_power_or_coalition = yes
				}
			}
			modifier = {
				custom_modifier_tooltip = IRQ_iranian_influence_hurt_TT
			}
		}

		IRQ_expulsion_of_foreigners_idea = {
			on_add = { log = "[GetDateText]: [Root.GetName]: add idea IRQ_expulsion_of_foreigners_idea" }
			picture = revolutionary_army
			cancel = {
				NOT = {
					neutrality_neutral_communism_in_power_or_coalition = yes
				}
			}
			modifier = {
				custom_modifier_tooltip = IRQ_iranian_influence_hurt2_TT
				custom_modifier_tooltip = IRQ_american_influence_hurt_TT
			}
		}

		IRQ_democratic_youth_federation_idea = {
			on_add = { log = "[GetDateText]: [Root.GetName]: add idea IRQ_democratic_youth_federation_idea" }
			picture = cominform
			cancel = {
				NOT = {
					neutrality_neutral_communism_in_power_or_coalition = yes
				}
			}
			modifier = {
				neutrality_drift = 0.03
				education_cost_multiplier_modifier = -0.10
				political_power_factor = 0.05
			}
		}

		IRQ_power_of_the_unions = {
			on_add = { log = "[GetDateText]: [Root.GetName]: add idea IRQ_power_of_the_unions" }
			picture = SOV_organize_wreckers
			cancel = {
				NOT = {
					neutrality_neutral_communism_in_power_or_coalition = yes
				}
			}
			modifier = {
				social_cost_multiplier_modifier = -0.15
				expected_welfare_modifier = 1.00
				expected_healthcare_modifier = 1.00
				health_cost_multiplier_modifier = -0.15
			}
		}
		# Sadrists
		IRQ_sadrist_militias = {
			on_add = { log = "[GetDateText]: [Root.GetName]: add idea IRQ_sadrist_militias" }
			picture = sadrist_movement
			allowed = { original_tag = IRQ }

			modifier = {
				nationalist_drift = 0.05
				foreign_influence_defense_modifier = 0.15
				drift_defence_factor = 0.10
			}
		}

		IRQ_al_hawasim = {
			on_add = { log = "[GetDateText]: [Root.GetName]: add idea IRQ_al_hawasim" }
			picture = roit_police_idea
			allowed = { original_tag = IRQ }

			modifier = {
				population_tax_income_multiplier_modifier = 0.10
				expected_police_modifier = -1
			}
		}

		IRQ_mahdi_army_expansion_idea = {
			on_add = { log = "[GetDateText]: [Root.GetName]: add idea IRQ_mahdi_army_expansion_idea" }
			picture = generic_idea_smallarms
			allowed = { original_tag = IRQ }

			modifier = {
				land_doctrine_cost_factor = -0.25
				army_speed_factor = 0.10
				cas_damage_reduction = 0.15
			}
		}

		IRQ_targeted_preparations = {
			on_add = { log = "[GetDateText]: [Root.GetName]: add idea IRQ_targeted_preparations" }
			picture = army_motorisation_good
			allowed = { original_tag = IRQ }

			modifier = {
				land_doctrine_cost_factor = -0.25
				army_speed_factor = 0.10
				cas_damage_reduction = 0.15
				experience_gain_army_factor = 0.10
				unit_Militia_Bat_design_cost_factor = -0.25
				unit_Mot_Militia_Bat_design_cost_factor = -0.25
				breakthrough_factor = 0.05
				equipment_capture_factor = 0.15
			}
		}

		IRQ_untrustworthy_neighbors = {
			on_add = { log = "[GetDateText]: [Root.GetName]: add idea IRQ_untrustworthy_neighbors" }
			picture = burning_syria
			allowed = { original_tag = IRQ }

			modifier = {
				production_speed_bunker_factor = 0.10
			}
			targeted_modifier = {
				tag = SYR
				attack_bonus_against = 0.15
				defense_bonus_against = 0.15
			}
		}
		# Lions Den Branch
		IRQ_the_lions_den = {
			on_add = { log = "[GetDateText]: [Root.GetName]: add idea IRQ_the_lions_den" }
			picture = resistance3
			allowed = { original_tag = IRQ }
			targeted_modifier = {
				tag = PER
				attack_bonus_against = 0.15
				defense_bonus_against = 0.15
			}
		}

		IRQ_strategic_partnerships = {
			on_add = { log = "[GetDateText]: [Root.GetName]: add idea IRQ_strategic_partnerships" }
			picture = deal_with_the_devil
			allowed = { original_tag = IRQ }
			modifier = {
				fossil_pp_fuel_consumption_modifier = -0.05
				production_speed_fossil_powerplant_factor = 0.15
			}
		}
		# Post-Ba'ath Military Ideas
		#
		IRQ_baath_equilibrium = {
			on_add = { log = "[GetDateText]: [Root.GetName]: add idea IRQ_baath_equilibrium" }
			picture = bastion_of_baathism

			allowed_civil_war = { always = no }

			modifier = {
				fascism_drift = 0.01
				power_balance_weekly = -0.003
			}
		}
	}
}
