ideas = {

	country = {

		israel_new_intifada = {
			on_add = { log = "[GetDateText]: [Root.GetName]: add idea israel_new_intifada" }

			allowed = {
				always = no
			}

			picture = research_bonus

			modifier = {
				stability_factor = -0.10
				political_power_factor = -0.10
				production_speed_buildings_factor = -0.25
				neutrality_drift = 0.05
			}
		}

	}
	country = {

		american_support = {
			on_add = { log = "[GetDateText]: [Root.GetName]: Us Investment" }

			allowed = {
				always = no
			}

			picture = research_bonus

			modifier = {
				consumer_goods_factor = -0.05
			}
		}

	}
	country = {

		chinese_support = {
			on_add = { log = "[GetDateText]: [Root.GetName]: Us Investment" }

			allowed = {
				always = no
			}

			picture = research_bonus

			modifier = {
				consumer_goods_factor = -0.03
			}
		}

	}
	country = {

		carmel_program = {
			on_add = { log = "[GetDateText]: [Root.GetName]: Us Investment" }

			allowed = {
				always = no
			}

			picture = research_bonus

			modifier = {
				army_armor_speed_factor = 0.05
				army_armor_attack_factor = 0.1
				army_armor_defence_factor = 0.05
			}
		}

	}
	country = {

		compulsary_service = {
			on_add = { log = "[GetDateText]: [Root.GetName]: Us Investment" }

			allowed = {
				always = no
			}

			picture = research_bonus

			modifier = {
				conscription = 0.03
			}
		}

	}
	country = {

		sayeret = {
			on_add = { log = "[GetDateText]: [Root.GetName]: Us Investment" }

			allowed = {
				always = no
			}

			picture = research_bonus

			modifier = {
				special_forces_attack_factor = 0.1
				special_forces_defence_factor = 0.1
			}
		}

	}

	country = {

		zionism = {
			on_add = { log = "[GetDateText]: [Root.GetName]: Us Investment" }

			allowed = {
				always = no
			}

			picture = research_bonus

			modifier = {
				army_core_attack_factor = 0.1
				army_core_defence_factor = 0.1
			}
		}

	}

	country = {

		country_wide_employment = {
			on_add = { log = "[GetDateText]: [Root.GetName]: Us Investment" }

			allowed = {
				always = no
			}

			picture = research_bonus

			modifier = {
				consumer_goods_factor = -0.05
			}
		}

	}

	country = {

		israeli_intelligence = {
			on_add = { log = "[GetDateText]: [Root.GetName]: Us Investment" }

			allowed = {
				always = no
			}

			picture = research_bonus

			modifier = {
				intel_network_gain_factor = 0.25
				intel_from_operatives_factor = 0.25
			}
		}

	}
	country = {

		defense_of_israel = {
			on_add = { log = "[GetDateText]: [Root.GetName]: Us Investment" }

			allowed = {
				always = no
			}

			picture = research_bonus

			modifier = {
				army_core_defence_factor = 0.1
				army_core_attack_factor = 0.1
			}
		}

	}
	country = {

		conscription_reform = {
			on_add = { log = "[GetDateText]: [Root.GetName]: Us Investment" }

			allowed = {
				always = no
			}

			picture = research_bonus

			modifier = {
				army_org_factor = 0.1
				army_morale_factor = 0.1
			}
		}

	}
	country = {

		mossad = {
			on_add = { log = "[GetDateText]: [Root.GetName]: Us Investment" }

			allowed = {
				always = no
			}

			picture = research_bonus

			modifier = {
				operative_slot = 2
				intel_network_gain_factor = 0.2
			}
		}

	}
	country = {

		yozma = {
			on_add = { log = "[GetDateText]: [Root.GetName]: Us Investment" }

			allowed = {
				always = no
			}

			picture = research_bonus

			modifier = {
				research_speed_factor = 0.08
			}
		}

	}
	country = {

		shin_bet = {
			on_add = { log = "[GetDateText]: [Root.GetName]: Us Investment" }

			allowed = {
				always = no
			}

			picture = research_bonus

			modifier = {
				resistance_target = -0.1
				root_out_resistance_effectiveness_factor = 0.1
			}
		}

	}
	country = {

		aman = {
			on_add = { log = "[GetDateText]: [Root.GetName]: Us Investment" }

			allowed = {
				always = no
			}

			picture = research_bonus

			modifier = {
				recon_factor = 0.05
				agency_upgrade_time = -0.15
			}
		}

	}
	country = {

		palestinians_return = {
			on_add = { log = "[GetDateText]: [Root.GetName]: Us Investment" }

			allowed = {
				always = no
			}

			picture = research_bonus

			modifier = {
				weekly_manpower = 1000
				MONTHLY_POPULATION = 0.5
			}
		}

	}
	country = {

		ethiopian_return = {
			on_add = { log = "[GetDateText]: [Root.GetName]: Us Investment" }

			allowed = {
				always = no
			}

			picture = research_bonus

			modifier = {
				weekly_manpower = 600
				MONTHLY_POPULATION = 0.5
			}
		}

	}
	country = {

		eu_trade_isr = {
			on_add = { log = "[GetDateText]: [Root.GetName]: Us Investment" }

			allowed = {
				always = no
			}

			picture = research_bonus

			modifier = {
				trade_opinion_factor = 0.15
			}
		}
		cheap_pal_labour = {
			on_add = { log = "[GetDateText]: [Root.GetName]: Us Investment" }

			allowed = {
				always = no
			}

			picture = research_bonus

			modifier = {
				consumer_goods_factor = -0.03
			}
		}
		greater_israel = {
			on_add = { log = "[GetDateText]: [Root.GetName]: Us Investment" }

			allowed = {
				always = no
			}

			picture = research_bonus

			modifier = {
				justify_war_goal_time = -0.25
			}
		}
		pal_diaspora = {
			on_add = { log = "[GetDateText]: [Root.GetName]: Us Investment" }

			allowed = {
				always = no
			}

			picture = research_bonus

			modifier = {
				consumer_goods_factor = -0.02
			}
		}
		drone_capitol = {
			on_add = { log = "[GetDateText]: [Root.GetName]: Us Investment" }

			allowed = {
				always = no
			}

			picture = research_bonus

			equipment_bonus = {
				small_plane_suicide_airframe = {
					build_cost_ic = -0.15
					instant = yes
				}
			}

			modifier = {
			}
		}
		isr_very_low_happiness = {
			on_add = { log = "[GetDateText]: [Root.GetName]: Us Investment" }

			allowed = {
				always = no
			}

			picture = research_bonus

			modifier = {
				stability_weekly = -0.03
				political_power_factor = -0.10
			}
		}
		isr_low_happiness = {
			on_add = { log = "[GetDateText]: [Root.GetName]: Us Investment" }

			allowed = {
				always = no
			}

			picture = research_bonus

			modifier = {
				stability_weekly = -0.01
				political_power_factor = -0.05
			}
		}
		isr_moderate_happiness = {
			on_add = { log = "[GetDateText]: [Root.GetName]: Us Investment" }

			allowed = {
				always = no
			}

			picture = research_bonus

			modifier = {
			}
		}
		isr_high_happiness = {
			on_add = { log = "[GetDateText]: [Root.GetName]: Us Investment" }

			allowed = {
				always = no
			}

			picture = research_bonus

			modifier = {
				stability_weekly = 0.01
				political_power_factor = 0.05
			}
		}
		isr_very_high_happiness = {
			on_add = { log = "[GetDateText]: [Root.GetName]: Us Investment" }

			allowed = {
				always = no
			}

			picture = research_bonus

			modifier = {
				stability_weekly = 0.03
				political_power_factor = 0.10
			}
		}
		isr_low_terrorism = {
			on_add = { log = "[GetDateText]: [Root.GetName]: Us Investment" }

			allowed = {
				always = no
			}

			picture = research_bonus


			modifier = {

			}
		}


		isr_moderate_terrorism = {
			on_add = { log = "[GetDateText]: [Root.GetName]: Us Investment" }

			allowed = {
				always = no
			}

			picture = research_bonus


			modifier = {
				stability_weekly = -0.005
				war_support_weekly = -0.008
				resistance_growth = 0.06
				required_garrison_factor = 0.07
			}
		}


		isr_high_terrorism = {
			on_add = { log = "[GetDateText]: [Root.GetName]: Us Investment" }

			allowed = {
				always = no
			}

			picture = research_bonus


			modifier = {
				stability_weekly = -0.010
				war_support_weekly = -0.013
				resistance_growth = 0.12
				required_garrison_factor = 0.10
			}
		}

		isr_very_high_terrorism = {
			on_add = { log = "[GetDateText]: [Root.GetName]: Us Investment" }

			allowed = {
				always = no
			}

			picture = research_bonus


			modifier = {
				stability_weekly = -0.015
				war_support_weekly = -0.018
				resistance_growth = 0.17
				required_garrison_factor = 0.14
			}
		}

		isr_apocalyptic_terrorism = {
			on_add = { log = "[GetDateText]: [Root.GetName]: Us Investment" }

			allowed = {
				always = no
			}

			picture = research_bonus


			modifier = {
				stability_weekly = -0.020
				war_support_weekly = -0.025
				resistance_growth = 0.22
				required_garrison_factor = 0.18
			}
		}
	}
}