state = {
	id = 1100
	name = "STATE_1100"

	history = {
		owner = LBA
		add_core_of = LBA
		victory_points = {
			1057 1
		}
		buildings = {
		}
		2017.1.1 = {
			owner = HOR
			add_core_of = GNA
			add_core_of = GNC
			add_core_of = HOR
			add_manpower = 11074
		}
	}

	provinces = {
		14502 14500 14499 1057
	}
	manpower = 46679
	buildings_max_level_factor = 1.000
	state_category = state_00
}
