state = {
	id = 168
	name = "STATE_168"

	history = {
		owner = IRQ
		victory_points = {
			12046 5
		}
		victory_points = {
			11275 5
		}
		victory_points = {
			11199 1
		}
		victory_points = {
			12413 2
		}
		victory_points = {
			11191 2
		}
		buildings = {
			infrastructure = 1
			internet_station = 0
			industrial_complex = 1
		}
		add_core_of = IRQ
		add_to_array = {
			array = sunni_states
		}
		2017.1.1 = {
			add_core_of = ISI
			ISI = {
				set_province_controller = 12413
				set_province_controller = 6229
				set_province_controller = 11201
				set_province_controller = 11196
			}
			add_manpower = 970346
			buildings = {
				internet_station = 1
			}
		}
	}

	provinces = {
		1631 4951 12046 12413 3180 3265 3272 6229 11191 11196 11198 11199 11201 11255 11275
	}
	manpower = 1472477
	buildings_max_level_factor = 1.000
	state_category = state_02
}
