#########################################################################
# OPINION MODIFIERS
##########################################################################
# value
# min_trust
# max_trust
# decay
# months/years/days = timer
# trade = yes/no
opinion_modifiers = {

	friendly_italy_and_sanmarino = {
		value = 40
	}

}

