EDU_learn_your_ABCs_with_dread = {
	if = {
		limit = { has_variable = literacy_rate }
		add_dynamic_modifier = { modifier = education_dynamic_modifier }
		set_country_flag = education_mechanic
		EDU_update_education_idea_DYNMOD = yes
		set_country_flag = {
			flag = EDU_pulse_checked_this_year
			days = 230
			value = 1
		}
	}
}

EDU_learn_to_civil_war = {
	if = {
		limit = { FROM = { has_variable = literacy_rate } }
		set_variable = { ROOT.literacy_rate = FROM.literacy_rate }
		EDU_learn_your_ABCs_with_dread = yes
		ROOT = { set_country_flag = EDU_civil_war_ongoing }
		FROM = { set_country_flag = EDU_civil_war_ongoing }
	}
}

EDU_annual_pulse_for_learning_stuff = {
	if = {
		limit = {
			NOT = { has_country_flag = EDU_pulse_checked_this_year }
			has_variable = literacy_rate
		}
		if = {
			limit = {
				check_variable = { literacy_rate > 0.949 }
			}
			country_event = { id = education.1 }
		}
		else_if = {
			limit = {
				check_variable = { literacy_rate < 0.899 }
				has_country_flag = EDU_cleared_previously
			}
			country_event = { id = education.2 }
		}
		else_if = {
			limit = {
				has_country_flag = education_mechanic
			}
			country_event = education_literacy_pulse.1
		}
		set_country_flag = {
			flag = EDU_pulse_checked_this_year
			value = 1
			days = 350
		}
	}
}

EDU_learn_to_annex_your_neighbours = {
	if = { # CONGOLESE CIVIL WAR CONDITIONALS
		limit = {
			ROOT = {
				OR = {
					tag = DRC
					tag = MLC
					tag = RCD
				}
			}
			FROM = {
				OR = {
					tag = DRC
					tag = MLC
					tag = RCD
				}
			}
		}
		set_variable = { literacy_rate = ROOT.literacy_rate }
	}
	else_if = { # SIERRA LEONE CIVIL WAR CONDITIONALS
		limit = {
			ROOT = {
				OR = {
					tag = AFR
					tag = SIE
				}
			}
			FROM = {
				OR = {
					tag = AFR
					tag = SIE
				}
			}
		}
		set_variable = { literacy_rate = ROOT.literacy_rate }
	}
	else_if = { # LIBERIAN CIVIL WAR CONDITIONALS
		limit = {
			ROOT = {
				OR = {
					tag = LIB
					tag = LUR
				}
			}
			FROM = {
				OR = {
					tag = LIB
					tag = LUR
				}
			}
		}
		set_variable = { literacy_rate = ROOT.literacy_rate }
	}
	else_if = { # ANGOLAN CIVIL WAR CONDITIONALS
		limit = {
			ROOT = {
				OR = {
					tag = AGL
					tag = UNI
				}
			}
			FROM = {
				OR = {
					tag = AGL
					tag = UNI
				}
			}
		}
		set_variable = { literacy_rate = ROOT.literacy_rate }
	}
	else_if = { # SOMALI CIVIL WAR CONDITIONALS
		limit = {
			ROOT = {
				OR = {
					tag = JUB
					tag = SHB
					tag = SNA
					tag = SOM
					tag = SWS
				}
			}
			FROM = {
				OR = {
					tag = JUB
					tag = SHB
					tag = SNA
					tag = SOM
					tag = SWS
				}
			}
		}
		set_variable = { literacy_rate = ROOT.literacy_rate }
	}
	else_if = { # SENEGALESE CIVIL WAR CONDITIONALS
		limit = {
			ROOT = {
				OR = {
					tag = SEN
					tag = CSM
				}
			}
			FROM = {
				OR = {
					tag = SEN
					tag = CSM
				}
			}
		}
		set_variable = { literacy_rate = ROOT.literacy_rate }
	}
	else_if = { # IVORIAN CIVIL WAR CONDITIONALS
		limit = {
			ROOT = {
				OR = {
					tag = CDI
					tag = FNC
				}
			}
			FROM = {
				OR = {
					tag = CDI
					tag = FNC
				}
			}
		}
		set_variable = { literacy_rate = ROOT.literacy_rate }
	}
	else_if = { # GENERIC CIVIL WAR CONDITIONALS
		limit = {
			ROOT = { has_country_flag = EDU_civil_war_ongoing }
			FROM = { has_country_flag = EDU_civil_war_ongoing }
		}
		set_variable = { literacy_rate = ROOT.literacy_rate }
		ROOT = { clr_country_flag = EDU_civil_war_ongoing }
		FROM = { clr_country_flag = EDU_civil_war_ongoing }
	}
	else = { # WITHOUT CIVIL WAR CONDITIONALS
		if = {
			limit = {
				ROOT = {
					has_variable = literacy_rate
				}
				FROM = {
					has_variable = literacy_rate
				}
			}
			EDU_annexation_math_education = yes
		}
	}
	EDU_update_education_idea_DYNMOD = yes
}

# Gives literacy rate from annexed nations Reduces or Increases based on num of educated people
EDU_annexation_math_education = {
	log = "[GetDateText]: [ROOT.GetName]: Running Effect: EDU_annexation_math_education"
	set_country_flag = education_maths_ongoing
	# ANNEXER LITERACY
	set_variable = { winner_literacy = ROOT.literacy_rate }
	# ANNEXER PCWR MATH
	set_variable = { winner_pwcr = ROOT.population_total_m }
	multiply_variable = { winner_pwcr = ROOT.winner_literacy }
	# ANNEXEE LITERACY
	set_variable = { loser_literacy = FROM.literacy_rate }
	# ANNEXEE PCWR MATH
	set_variable = { loser_pwcr = FROM.population_total_m }
	multiply_variable = { loser_pwcr = loser_literacy }
	# COMBINED POPULATION MATH
	set_variable = { combined_population_m = ROOT.population_total_m }
	add_to_variable = { combined_population_m = FROM.population_total_m }
	# COMBINED PWCR MATH
	set_variable = { combined_pwcr = ROOT.winner_pwcr }
	add_to_variable = { combined_pwcr = loser_pwcr }
	# COMBINED LITERACY RATE
	set_variable = { combined_literacy = combined_pwcr }
	divide_variable = { combined_literacy = combined_population_m }
	# THE FUN BIT
	set_variable = { literacy_rate = combined_literacy }
	clr_country_flag = education_maths_ongoing
	clamp_variable = {
		var = literacy_rate
		min = 0.01
		max = 1
	}
	if = {
		limit = {
			is_agrarian_economy = yes
		}
		AGRI_update_math_variables = yes
	}
	EDU_update_education_idea_DYNMOD = yes
	log = "[GetDateText]: [ROOT.GetName]: Effect Completed: EDU_annexation_math_education"
}

EDU_update_education_idea_DYNMOD = {
	set_temp_variable = { base_modifier = literacy_rate }
	multiply_temp_variable = { base_modifier = 100 }
	# MLW 64.1
	# -30.9
	# MLW 0.641
	add_to_temp_variable = { base_modifier = -95 }
	set_variable = { literacy_research = base_modifier }
	set_variable = { literacy_education_cost = base_modifier }
	set_variable = { literacy_productivity_gain = base_modifier }
	set_variable = { literacy_educated_workers = base_modifier }
	set_variable = { literacy_retarded_workers = base_modifier }
	multiply_variable = { literacy_research = 0.005 }
	# -0.587 - 0.019
	# 58.7% slower
	# -0.154 - 0.005
	# 15.4% slower
	multiply_variable = { literacy_education_cost = -0.005 }
	multiply_variable = { literacy_productivity_gain = 0.005 }
	multiply_variable = { literacy_educated_workers = 0.005 }
	multiply_variable = { literacy_retarded_workers = -0.005 }
	# 0.587
	# 58.7% higher
	# 0.154 - 0.005
	# 15.4% higher
	# Clamps to stop it from breaking the system (prevent negative in positives)
	clamp_variable = { var = literacy_education_cost max = 1 }
	clamp_variable = { var = literacy_productivity_gain max = 1 }
	clamp_variable = { var = literacy_educated_workers max = 1 }
	clamp_variable = { var = literacy_retarded_workers max = 1 }
	force_update_dynamic_modifier = yes
}

EDU_check_education_spending = {
	if = {
		limit = {
			has_idea = edu_01
		}
		randomize_temp_variable = {
			var = LR_change
			distribution = uniform
			min = -0.05
			max = 0
		}
	}
	else_if = {
		limit = {
			has_idea = edu_02
		}
		randomize_temp_variable = {
			var = LR_change
			distribution = uniform
			min = -0.025
			max = 0.025
		}
	}
	else_if = {
		limit = {
			has_idea = edu_03
		}
		randomize_temp_variable = {
			var = LR_change
			distribution = uniform
			min = 0
			max = 0.05
		}
	}
	else_if = {
		limit = {
			has_idea = edu_04
		}
		randomize_temp_variable = {
			var = LR_change
			distribution = uniform
			min = 0.025
			max = 0.075
		}
	}
	else_if = {
		limit = {
			has_idea = edu_05
		}
		randomize_temp_variable = {
			var = LR_change
			distribution = uniform
			min = 0.05
			max = 0.10
		}
	}
	add_to_variable = { literacy_change_stored = LR_change }
}

update_literacy_rate_event = {
	custom_effect_tooltip = literacy_rate_change_event_TT
	add_to_variable = { literacy_rate = literacy_change_stored }
	clamp_variable = {
		var = literacy_rate
		min = 0.01
		max = 1
	}
	set_variable = { literacy_change_stored = 0 }
	EDU_update_education_idea_DYNMOD = yes
	if = {
		limit = {
			is_agrarian_economy = yes
		}
		AGRI_update_math_variables = yes
	}
}

update_literacy_rate = {
	custom_effect_tooltip = literacy_rate_change_TT
	add_to_variable = { literacy_rate = LR_change }
	EDU_update_education_idea_DYNMOD = yes
	if = {
		limit = {
			is_agrarian_economy = yes
		}
		AGRI_update_math_variables = yes
	}
	clamp_variable = {
		var = literacy_rate
		min = 0.01
		max = 1
	}
}
