﻿division_template = {
	name = "Gardijska Oklopno-Mehanizirana Brigada"

	regiments = {
		armor_Bat = { x = 0 y = 0 }
		SP_Arty_Bat = { x = 0 y = 1 }
		SP_AA_Bat = { x = 0 y = 2 }
		Arm_Inf_Bat = { x = 1 y = 0 }
		Arm_Inf_Bat = { x = 1 y = 1 }
		Arm_Inf_Bat = { x = 1 y = 2 }
		Mech_Inf_Bat = { x = 2 y = 0 }
	}
	support = {
		Mot_Recce_Comp = { x = 0 y = 0 }
	}
}

division_template = {
	name = "Gardijska Motorizirana Brigada"

	regiments = {
		Mech_Inf_Bat = { x = 0 y = 0 }
		Mech_Inf_Bat = { x = 0 y = 1 }
		SP_Arty_Bat = { x = 0 y = 2 }
		Mot_Inf_Bat = { x = 1 y = 0 }
		Mot_Inf_Bat = { x = 1 y = 1 }
		Arty_Bat = { x = 1 y = 2 }
		L_Inf_Bat = { x = 1 y = 3 }
	}
	support = {
		Mot_Recce_Comp = { x = 0 y = 0 }
	}
}


units = {
	division = {
		name = "Gardijska Oklopno-Mehanizirana Brigada"
		location = 6647		#Vinkovici
		division_template = "Gardijska Oklopno-Mehanizirana Brigada"
		start_experience_factor = 0.5
		start_equipment_factor = 0.01
	}

	division = {
		name = "Gardijska Motorizirana Brigada"
		location = 3974		#Knin
		division_template = "Gardijska Motorizirana Brigada"
		start_experience_factor = 0.5
		start_equipment_factor = 0.01
	}
}

instant_effect = {
	add_equipment_to_stockpile = {
		type = infantry_weapons1		#Zastava M70
		amount = 3300
		producer = SER
	}

	add_equipment_to_stockpile = {
		type = infantry_weapons4		#VHS-1
		amount = 1500
		producer = CRO
	}

	add_equipment_to_stockpile = {
		type = infantry_weapons3		#G36
		amount = 250
		producer = GER
	}

	add_equipment_to_stockpile = {
		type = infantry_weapons4		#M4
		amount = 100
		producer = USA
	}

	add_equipment_to_stockpile = {
		type = infantry_weapons5		#H&K HK416
		amount = 100
		producer = GER
	}

	add_equipment_to_stockpile = {
		type = mbt_hull_1
		variant_name = "M-84A4 Snijper"
		amount = 56
		producer = CRO
	}

	add_equipment_to_stockpile = {
		type = mbt_hull_1
		variant_name = "M-84D"
		amount = 16
		producer = CRO
	}

	add_equipment_to_stockpile = {
		type = IFV_2		#BVP M-80
		amount = 104
		producer = SER
	}

	add_equipment_to_stockpile = {
		type = APC_5		#Patria AMV
		amount = 126
		producer = FIN
	}

	add_equipment_to_stockpile = {
		type = util_vehicle_4		#Iveco LMV
		amount = 14
		producer = ITA
	}

	add_equipment_to_stockpile = {
		type = util_vehicle_3		#M1113 Humvee
		amount = 93
		producer = USA
	}

	add_equipment_to_stockpile = {
		type = util_vehicle_4		#Oshkosh M-ATV
		amount = 172
		producer = USA
	}

	add_equipment_to_stockpile = {
		type = util_vehicle_4		#RG-33
		#version_name = "RG-33"
		amount = 20
		producer = USA
	}

	add_equipment_to_stockpile = {
		type = util_vehicle_5		#MaxxPro
		amount = 40
		producer = USA
	}

	add_equipment_to_stockpile = {
		type = SP_Anti_Air_1		#Strijela-10CROA1
		amount = 9
		producer = CRO
	}

	add_equipment_to_stockpile = {
		type = SP_Anti_Air_1		#BOV-3
		amount = 44
		producer = SER
	}

	add_equipment_to_stockpile = {
		type = Anti_Air_1		#Igla
		amount = 67
		producer = SOV
	}

	add_equipment_to_stockpile = {
		type = Anti_Air_0		#Strela
		amount = 141
		producer = SOV
	}

	add_equipment_to_stockpile = {
		type = Anti_tank_1		#Metis
		#version_name = "AT-7 Metis"
		amount = 54
		producer = SOV
	}

	add_equipment_to_stockpile = {
		type = Anti_tank_1		#Faogt
		amount = 119
		producer = SOV
	}

	add_equipment_to_stockpile = {
		type = Anti_tank_0		#Malyutka
		amount = 216
		producer = SOV
	}

	add_equipment_to_stockpile = {
		type = Heavy_Anti_tank_1		#Konkurs
		amount = 42
		producer = SOV
	}

	add_equipment_to_stockpile = {
		type = artillery_0		#M101
		#version_name = "M101"
		amount = 48
		producer = USA
	}

	add_equipment_to_stockpile = {
		type = artillery_0		#D-30 RH M94
		amount = 54
		producer = CRO
	}

	add_equipment_to_stockpile = {
		type = artillery_0		#M1954
		amount = 72
		producer = SOV
	}

	add_equipment_to_stockpile = {
		type = artillery_0		#CITER L33
		amount = 18
		producer = ARG
	}

	add_equipment_to_stockpile = {
		type = SP_arty_0		#2S1 Gvozdika
		#version_name = "2S1 Gvozdika"
		amount = 9
		producer = SOV
	}

	add_equipment_to_stockpile = {
		type = SP_arty_2		#PzH 2000
		amount = 15
		producer = GER
	}

	add_equipment_to_stockpile = {
		type = SP_R_arty_0		#M-63 Plamen
		amount = 68
		producer = CRO
	}

	add_equipment_to_stockpile = {
		type = SP_R_arty_0		#APR-40
		amount = 36
		producer = ROM
	}

	add_equipment_to_stockpile = {
		type = util_vehicle_2		#Mercedes Benz G-Class
		amount = 324
		producer = GER
	}

	add_equipment_to_stockpile = {
		type = util_vehicle_2		#Land Rover Defender
		amount = 32
		producer = ENG
	}

	add_equipment_to_stockpile = {
		type = command_control_equipment2
		amount = 200
		producer = USA
	}

	add_equipment_to_stockpile = {
		type = MR_Fighter1		#MiG-21
		amount = 12
		producer = SOV
	}

	add_equipment_to_stockpile = {
		type = transport_helicopter1		#Mi-17
		amount = 23
		producer = SOV
	}
}
