﻿units = {

	### Naval OOB ###
	fleet = {
	   name = "Marina de Guinea Ecuatorial"
	   naval_base = 1903
		task_force = {
			name = "Marina de Guinea Ecuatorial"
			location = 1903
			ship = { name = "Wele Nzas" definition = frigate start_experience_factor = 0.10 equipment = { missile_frigate_3 = { amount = 1 owner = EGU } } }
			ship = { name = "Bata" definition = corvette start_experience_factor = 0.10 equipment = { missile_corvette_2 = { amount = 1 owner = EGU creator = BRA } } }
		}
	}
}
