﻿division_template = {
	name = "Elite Militia Battalion"
	regiments = {
		Mot_Militia_Bat = { x = 0 y = 0 }
	}
	support = {
	armor_Comp = { x = 0 y = 0 }
	}
}

division_template = {
	name = "Militia Battalion"
	regiments = {
		Mot_Militia_Bat = { x = 0 y = 0 }
	}
}

division_template = {
	name = "Hezbollah Intervention Brigade"
	regiments = {
		Arm_Inf_Bat = { x = 0 y = 0 }
	}
	support = {
	armor_Comp = { x = 0 y = 0 }
	Mech_Recce_Comp = { x = 0 y = 1 }
	Arty_Battery = { x = 0 y = 2 }
	H_Engi_Comp = { x = 0 y = 3 }
	SP_AA_Battery = { x = 0 y = 4 }
	}
}

division_template = {
	name = "Hezbollah Special Unit"
	regiments = {
		Special_Forces = { x = 0 y = 0 }
	}
	support = {
	L_Recce_Comp = { x = 0 y = 0 }
	L_Engi_Comp = { x = 0 y = 1 }
	SP_Arty_Battery = { x = 0 y = 2 }
	SP_AA_Battery = { x = 0 y = 3 }
	}
	priority = 2
}

division_template = {
	name = "Hezbollah Regular Brigade"
	regiments = {
		L_Inf_Bat = { x = 0 y = 0 }
		L_Inf_Bat = { x = 0 y = 1 }
		L_Inf_Bat = { x = 0 y = 2 }
		L_Inf_Bat = { x = 0 y = 3 }
		SP_Arty_Bat = { x = 0 y = 4 }
	}
	support = {
		SP_AA_Battery = { x = 0 y = 0 }
	}
}

division_template = {
	name = "Hezbollah Reservist Brigade"
	regiments = {
		L_Inf_Bat = { x = 0 y = 0 }
		Militia_Bat = { x = 0 y = 1 }
		Militia_Bat = { x = 0 y = 2 }
		SP_Arty_Bat = { x = 0 y = 3 }
	}
	support = {
		L_Recce_Comp = { x = 0 y = 0 }
		L_Engi_Comp = { x = 0 y = 1 }
	}
	priority = 0
}

division_template = {
	name = "Iraqi Harakat Hezbollah Brigade"
	regiments = {
		Mot_Inf_Bat = { x = 0 y = 0 }
	}
	support = {
		armor_Comp = { x = 0 y = 0 }
		Arm_Recce_Comp = { x = 0 y = 1 }
		Arty_Battery = { x = 0 y = 2 }
	}
	priority = 2
}

division_template = {
	name = "Syrian Hezbollah Brigade"
	regiments = {
		Mot_Inf_Bat = { x = 0 y = 0 }
	}
	support = {
		armor_Comp = { x = 0 y = 0 }
		Arm_Recce_Comp = { x = 0 y = 1 }
		Arty_Battery = { x = 0 y = 2 }
	}
}

division_template = {
	name = "Large Syrian Hezbollah Brigade"
	regiments = {
		Mot_Militia_Bat = { x = 0 y = 0 }
		Mot_Militia_Bat = { x = 0 y = 1 }
		Mot_Militia_Bat = { x = 0 y = 2 }
	}
	support = {
		armor_Comp = { x = 0 y = 0 }
		SP_Arty_Battery = { x = 0 y = 1 }
	}
}

units = {
### Lebanese Hezbollah ###
	division = {
		name = "101st Brigade"
		location = 4486 #Syria
		division_template = "Hezbollah Intervention Brigade"
		start_experience_factor = 0.45
		start_equipment_factor = 0.01
	}
	division = {
		name = "102nd Brigade"
		location = 6302 #Syria
		division_template = "Hezbollah Intervention Brigade"
		start_experience_factor = 0.45
		start_equipment_factor = 0.01
	}
	division = {
		name = "103rd Brigade"
		location = 6302 #Syria
		division_template = "Hezbollah Intervention Brigade"
		start_experience_factor = 0.45
		start_equipment_factor = 0.01
	}

	division = {
		name = "301st Brigade"
		location = 11919 #Lebanon
		division_template = "Hezbollah Regular Brigade"
		start_experience_factor = 0.45
		start_equipment_factor = 0.01
	}
	division = {
		name = "302nd Brigade"
		location = 11919 #Lebanon
		division_template = "Hezbollah Regular Brigade"
		start_experience_factor = 0.45
		start_equipment_factor = 0.01
	}
	division = {
		name = "303rd Brigade"
		location = 11919 #Lebanon
		division_template = "Hezbollah Regular Brigade"
		start_experience_factor = 0.45
		start_equipment_factor = 0.01
	}
	division = {
		name = "Nasr Brigade"
		location = 11919 #Lebanon
		division_template = "Hezbollah Regular Brigade"
		start_experience_factor = 0.5
		start_equipment_factor = 0.01
	}
	division = {
		name = "Unit 910"
		location = 11919 #Lebanon
		division_template = "Hezbollah Special Unit"
		start_experience_factor = 0.65
		start_equipment_factor = 0.01
	}
	division = {
		name = "Unit 3800"
		location = 11919 #Lebanon
		division_template = "Hezbollah Special Unit"
		start_experience_factor = 0.65
		start_equipment_factor = 0.01
	}
	division = {
		name = "1st Reserve Brigade"
		location = 11919 #Lebanon
		division_template = "Hezbollah Reservist Brigade"
		start_experience_factor = 0.2
		start_equipment_factor = 0.01
	}
	division = {
		name = "2nd Reserve Brigade"
		location = 11919 #Lebanon
		division_template = "Hezbollah Reservist Brigade"
		start_experience_factor = 0.2
		start_equipment_factor = 0.01
	}
	division = {
		name = "3rd Reserve Brigade"
		location = 11919 #Lebanon
		division_template = "Hezbollah Reservist Brigade"
		start_experience_factor = 0.2
		start_equipment_factor = 0.01
	}
	#Syrian Hezbollah
division = {
		name = "Al-Ridha Forces" #largest group
		location = 1088 #
		division_template = "Large Syrian Hezbollah Brigade"
		start_experience_factor = 0.25
		start_equipment_factor = 0.01
	}
	division = {
		name = "The National Ideological Resistance in Syria"
		location = 1088 #
		division_template = "Syrian Hezbollah Brigade"
		start_experience_factor = 0.25
		start_equipment_factor = 0.01
	}
	division = {
		name = "Imam al-Bakr Brigade" #bde-sized
		location = 1056 #
		division_template = "Large Syrian Hezbollah Brigade"
		start_experience_factor = 0.25
		start_equipment_factor = 0.01
	}
	division = {
		name = "Imam al-Hujja Regiment"
		location = 1056 #
		division_template = "Syrian Hezbollah Brigade"
		start_experience_factor = 0.25
		start_equipment_factor = 0.01
	}
	division = {
		name = "Al-Mahdi Army"
		location = 10087 #
		division_template = "Syrian Hezbollah Brigade"
		start_experience_factor = 0.25
		start_equipment_factor = 0.01
	}

#Iraqi Hezbollah (Harakat Hezbollah) & allies
division = {
		name = "Katayb Harakat an-Nujba" #2.000 strong
		location = 12473 #Aleppo
		division_template = "Iraqi Harakat Hezbollah Brigade"
		start_experience_factor = 0.25
		start_equipment_factor = 0.01
	}
	division = {
		name = "2.000 Brigade"
		location = 12473 #Aleppo
		division_template = "Iraqi Harakat Hezbollah Brigade"
		start_experience_factor = 0.25
		start_equipment_factor = 0.01
	}
	division = {
		name = "Kata'ib Hezbollah"
		location = 6308 #Aleppo
		division_template = "Iraqi Harakat Hezbollah Brigade"
		start_experience_factor = 0.35
		start_equipment_factor = 0.01
	}
	division = {
		name = "Kata'ib as-Sabirun"
		location = 6308 #Aleppo
		division_template = "Militia Battalion"
		start_experience_factor = 0.5
		start_equipment_factor = 0.01
	}
	division = {
		name = "Harakat al-Abdal"
		location = 4550 #
		division_template = "Militia Battalion"
		start_experience_factor = 0.3
		start_equipment_factor = 0.01
	}
	division = {
		name = "Liwa Ali al-Akbar"
		location = 6302 #homs
		division_template = "Militia Battalion"
		start_experience_factor = 0.3
		start_equipment_factor = 0.01
	}
	division = {
		name = "Liwa al-Qahira"
		location = 6302 #homs
		division_template = "Militia Battalion"
		start_experience_factor = 0.3
		start_equipment_factor = 0.01
	}
}

instant_effect = {
	add_equipment_to_stockpile = {
		type = IFV_3			#BMP-2
		amount = 120
		producer = SOV
	}

	add_equipment_to_stockpile = {
		type = IFV_1			#BMP-1
		amount = 200
		producer = SOV
	}

	add_equipment_to_stockpile = {
		type = APC_2 #M113
		amount = 80
		producer = USA
	}

	add_equipment_to_stockpile = {
		type = MBT_4			#T-90
		amount = 20
		producer = SOV
	}

	add_equipment_to_stockpile = {
		type = MBT_2			#T-72
		amount = 220
		producer = SOV
	}

	add_equipment_to_stockpile = {
		type = MBT_1			#T-55
		amount = 100
		producer = SOV
	}

	add_equipment_to_stockpile = {
		type = Air_UAV1 #Shahed 129
		amount = 30
		producer = PER
	}

	add_equipment_to_stockpile = {
		type = util_vehicle_1	#Safir-jeeps
		amount = 2000
		producer = PER
	}

	add_equipment_to_stockpile = {
		type = SP_R_arty_0	#Fajr-1
		amount = 160
		producer = PER
	}

	add_equipment_to_stockpile = {
		type = SP_R_arty_1	#Fajr-3
		amount = 60
		producer = PER
	}

	add_equipment_to_stockpile = {
		type = SP_R_arty_2	#Fajr-5
		amount = 20
		producer = PER
	}

	add_equipment_to_stockpile = {
		type = SP_arty_0		#2S1 Gvozdika
		#version_name = "2S1 Gvozdika"
		amount = 36
		producer = SOV
	}

	add_equipment_to_stockpile = {
		type = command_control_equipment2
		amount = 800
		producer = PER
	}

	add_equipment_to_stockpile = {
		type = infantry_weapons #Licence produced German G3 rifle
		amount = 10000
		producer = PER
	}
	add_equipment_to_stockpile = {
		type = infantry_weapons3 #M4 copies
		amount = 6000
		producer = PER
	}
	add_equipment_to_stockpile = {
		type = infantry_weapons1 #S.5.56
		amount = 3000
		producer = PER
	}

	#ATGM
	add_equipment_to_stockpile = {
		type = Anti_tank_0 #Saeghe
		amount = 350
		producer = PER
	}
	add_equipment_to_stockpile = {
		type = Anti_tank_2 #9K115-2 Metis-M
		amount = 200
		producer = PER
	}
	add_equipment_to_stockpile = {
		type = Heavy_Anti_tank_1 #Toophan 5/Towsan-1
		amount = 130
		producer = PER
	}
	add_equipment_to_stockpile = {
		type = Heavy_Anti_tank_2 #Dehlavie/Kornet
		amount = 140
		producer = PER
	}

	#SP-AA

	add_equipment_to_stockpile = {
		type = SP_Anti_Air_2
		#version_name = "SA-22 Pantsir"
		amount = 18
		producer = SOV
	}

	#MANPADS
	add_equipment_to_stockpile = {
		type = Anti_Air_1 #Misagh-1
		amount = 180
		producer = PER
	}
	add_equipment_to_stockpile = {
		type = Anti_Air_2 #Misagh-2
		amount = 120
		producer = PER
	}
}