﻿division_template = {
	name = "Brigada de Infanterie"

	regiments = {
		Mot_Inf_Bat = { x = 0 y = 0 }
		Mot_Inf_Bat = { x = 0 y = 1 }
		Arty_Bat = { x = 0 y = 2 }
	}
	support = {
		L_Engi_Comp = { x = 0 y = 0 }
	}
}

division_template = {
	name = "Brigada de Mecanizata"

	regiments = {
		Mech_Inf_Bat = { x = 0 y = 0 }
		Mech_Inf_Bat = { x = 0 y = 1 }
		SP_Arty_Bat = { x = 0 y = 2 }
	}
	support = {
		L_Engi_Comp = { x = 0 y = 0 }
	}
}

division_template = {
	name = "Batalion de Forte Speciale"

	regiments = {
		Special_Forces = { x = 0 y = 0 }
	}

	priority = 2
}

units = {
	division = {
		name = "1a Brigada de Infanterie 'Moldova'"
		location = 11686
		division_template = "Brigada de Mecanizata"
		start_experience_factor = 0.4
		start_equipment_factor = 0.01
	}

	division = {
		name = "2a Brigada de Infanterie 'Stefan Cel Mare'"
		location = 6600
		division_template = "Brigada de Mecanizata"
		start_experience_factor = 0.4
		start_equipment_factor = 0.01
	}

	division = {
		name = "3a Brigada de Infanterie 'Dacia'"
		location = 3724
		division_template = "Brigada de Infanterie"
		start_experience_factor = 0.4
		start_equipment_factor = 0.01
	}

	division = {
		name = "Batalion de Forte Speciale"
		location = 11686
		division_template = "Batalion de Forte Speciale"
		start_experience_factor = 0.7
		start_equipment_factor = 0.01
	}
}

instant_effect = {
	add_equipment_to_stockpile = {
		type = infantry_weapons		 #AKM
		amount = 1000
		producer = SOV
	}

	add_equipment_to_stockpile = {
		type = infantry_weapons		 #Pistol Mitralieră model 1963
		amount = 1000
		producer = ROM
	}

	add_equipment_to_stockpile = {
		type = infantry_weapons1		 #AK-74
		amount = 500
		producer = SOV
	}

	add_equipment_to_stockpile = {
		type = mbt_hull_1
		variant_name = "T-64"
		amount = 3
		producer = SOV
	}

	add_equipment_to_stockpile = {
		type = IFV_1
		amount = 44
		producer = SOV
	}

	add_equipment_to_stockpile = {
		type = APC_4		 #BTR-80
		amount = 11
		producer = SOV
	}

	add_equipment_to_stockpile = {
		type = APC_3		 #BTR-70
		amount = 5
		producer = SOV
	}

	add_equipment_to_stockpile = {
		type = APC_1		 #BTR-60
		amount = 48
		producer = SOV
	}

	add_equipment_to_stockpile = {
		type = APC_1		 #TAB-71
		amount = 89
		producer = ROM
	}

	add_equipment_to_stockpile = {
		type = APC_2		 #MT-LB
		amount = 64
		producer = SOV
	}

	add_equipment_to_stockpile = {
		type = util_vehicle_2		 #Humvee
		amount = 80
		producer = USA
	}

	add_equipment_to_stockpile = {
		type = SP_R_arty_0		 #BM-21 Grad
		amount = 14
		producer = SOV
	}

	add_equipment_to_stockpile = {
		type = SP_R_arty_1		 #BM-27 Uragan
		amount = 11
		producer = SOV
	}

	add_equipment_to_stockpile = {
		type = Anti_tank_1		 #Fagot
		amount = 71
		producer = SOV
	}

	add_equipment_to_stockpile = {
		type = Anti_tank_2		 #Metis
		amount = 20
		producer = SOV
	}

	add_equipment_to_stockpile = {
		type = Heavy_Anti_tank_1		 #Konkurs
		amount = 19
		producer = SOV
	}

	add_equipment_to_stockpile = {
		type = Heavy_Anti_tank_1		 #Spiral
		#version_name = "AT-6 Spiral"
		amount = 27
		producer = SOV
	}

	add_equipment_to_stockpile = {
		type = artillery_0		 #Old Soviet artillery
		amount = 69
		producer = SOV
	}

	add_equipment_to_stockpile = {
		type = command_control_equipment
		amount = 150
		producer = SOV
	}

	add_equipment_to_stockpile = {
		type = transport_helicopter1 #Mil Mi-8
		amount = 6
		producer = SOV
	}
}