﻿units = {

	### Naval OOB ###
fleet = {
		name = "Naval Combat Force"
	   naval_base = 4543
		task_force = {
			name = "Naval Combat Force"
			location = 4543
			Ship = { name = "HMNZS Te Kaha" definition = frigate start_experience_factor = 0.65 equipment = { missile_frigate_1 = { amount = 1 owner = NZL creator = AST } } }
			Ship = { name = "HMNZS Te Mana" definition = frigate start_experience_factor = 0.65 equipment = { missile_frigate_1 = { amount = 1 owner = NZL creator = AST } } }
			}
	}
}
